<?xml version="1.0" encoding="UTF-8" standalone="no"?>
<!-- Created with Inkscape (http://www.inkscape.org/) -->

<svg
   xmlns:dc="http://purl.org/dc/elements/1.1/"
   xmlns:cc="http://creativecommons.org/ns#"
   xmlns:rdf="http://www.w3.org/1999/02/22-rdf-syntax-ns#"
   xmlns:svg="http://www.w3.org/2000/svg"
   xmlns="http://www.w3.org/2000/svg"
   xmlns:xlink="http://www.w3.org/1999/xlink"
   xmlns:sodipodi="http://sodipodi.sourceforge.net/DTD/sodipodi-0.dtd"
   xmlns:inkscape="http://www.inkscape.org/namespaces/inkscape"
   width="744.09448819"
   height="1052.3622047"
   id="svg2"
   version="1.1"
   inkscape:version="0.48.5 r10040"
   sodipodi:docname="cressint.svg">
  <defs
     id="defs4">
    <linearGradient
       inkscape:collect="always"
       id="linearGradient8487">
      <stop
         style="stop-color:#ffff00;stop-opacity:1;"
         offset="0"
         id="stop8489" />
      <stop
         style="stop-color:#ffff00;stop-opacity:0;"
         offset="1"
         id="stop8491" />
    </linearGradient>
    <linearGradient
       id="linearGradient8475">
      <stop
         style="stop-color:#ffff00;stop-opacity:1;"
         offset="0"
         id="stop8477" />
      <stop
         style="stop-color:#ffff00;stop-opacity:0;"
         offset="1"
         id="stop8479" />
    </linearGradient>
    <linearGradient
       inkscape:collect="always"
       id="linearGradient8441">
      <stop
         style="stop-color:#ffffff;stop-opacity:1;"
         offset="0"
         id="stop8443" />
      <stop
         style="stop-color:#ffffff;stop-opacity:0;"
         offset="1"
         id="stop8445" />
    </linearGradient>
    <linearGradient
       inkscape:collect="always"
       id="linearGradient8395">
      <stop
         style="stop-color:#f05a28;stop-opacity:1;"
         offset="0"
         id="stop8397" />
      <stop
         style="stop-color:#f05a28;stop-opacity:0;"
         offset="1"
         id="stop8399" />
    </linearGradient>
    <linearGradient
       inkscape:collect="always"
       id="linearGradient8371">
      <stop
         style="stop-color:#ffffff;stop-opacity:1;"
         offset="0"
         id="stop8373" />
      <stop
         style="stop-color:#ffffff;stop-opacity:0;"
         offset="1"
         id="stop8375" />
    </linearGradient>
    <linearGradient
       inkscape:collect="always"
       xlink:href="#linearGradient8371"
       id="linearGradient8377"
       x1="545.88641"
       y1="613.95599"
       x2="353.55338"
       y2="449.9072"
       gradientUnits="userSpaceOnUse" />
    <linearGradient
       inkscape:collect="always"
       xlink:href="#linearGradient8395"
       id="linearGradient8401"
       x1="42.426407"
       y1="670.52454"
       x2="265.87216"
       y2="314.1427"
       gradientUnits="userSpaceOnUse" />
    <linearGradient
       inkscape:collect="always"
       xlink:href="#linearGradient8441"
       id="linearGradient8447"
       x1="758.01849"
       y1="727.09308"
       x2="367.69553"
       y2="495.16205"
       gradientUnits="userSpaceOnUse" />
    <linearGradient
       inkscape:collect="always"
       xlink:href="#linearGradient8475"
       id="linearGradient8485"
       gradientUnits="userSpaceOnUse"
       x1="354"
       y1="574.36218"
       x2="222"
       y2="340.36218"
       gradientTransform="translate(412,182)" />
    <radialGradient
       inkscape:collect="always"
       xlink:href="#linearGradient8487"
       id="radialGradient8493"
       cx="366"
       cy="524.32056"
       fx="366"
       fy="524.32056"
       r="173.99583"
       gradientTransform="matrix(0.83475912,-0.43287242,0.45369156,0.8749071,-177.40163,224.06174)"
       gradientUnits="userSpaceOnUse" />
    <radialGradient
       inkscape:collect="always"
       xlink:href="#linearGradient8487"
       id="radialGradient8519"
       gradientUnits="userSpaceOnUse"
       gradientTransform="matrix(0.83475912,-0.43287242,0.45369156,0.8749071,-177.40163,224.06174)"
       cx="366"
       cy="524.32056"
       fx="366"
       fy="524.32056"
       r="173.99583" />
    <radialGradient
       inkscape:collect="always"
       xlink:href="#linearGradient8487"
       id="radialGradient8521"
       gradientUnits="userSpaceOnUse"
       gradientTransform="matrix(0.83475912,-0.43287242,0.45369156,0.8749071,-177.40163,224.06174)"
       cx="366"
       cy="524.32056"
       fx="366"
       fy="524.32056"
       r="173.99583" />
  </defs>
  <sodipodi:namedview
     id="base"
     pagecolor="#ffffff"
     bordercolor="#666666"
     borderopacity="1.0"
     inkscape:pageopacity="0.0"
     inkscape:pageshadow="2"
     inkscape:zoom="0.70710678"
     inkscape:cx="349.18782"
     inkscape:cy="493.89914"
     inkscape:document-units="px"
     inkscape:current-layer="layer1"
     showgrid="false"
     inkscape:window-width="1366"
     inkscape:window-height="720"
     inkscape:window-x="0"
     inkscape:window-y="0"
     inkscape:window-maximized="1"
     inkscape:snap-center="false"
     showguides="false"
     inkscape:guide-bbox="true"
     inkscape:snap-nodes="false">
    <sodipodi:guide
       orientation="1,0"
       position="364.14007,529.44596"
       id="guide8013" />
    <sodipodi:guide
       orientation="0,1"
       position="364.14007,529.44596"
       id="guide8015" />
  </sodipodi:namedview>
  <metadata
     id="metadata7">
    <rdf:RDF>
      <cc:Work
         rdf:about="">
        <dc:format>image/svg+xml</dc:format>
        <dc:type
           rdf:resource="http://purl.org/dc/dcmitype/StillImage" />
      </cc:Work>
    </rdf:RDF>
  </metadata>
  <g
     inkscape:label="Layer 1"
     inkscape:groupmode="layer"
     id="layer1">
    <path
       id="path4124"
       d="m -410.6771,515.65479 c -7.54587,0.20479 -15.03966,2.88166 -21.6875,8.78125 -23.61482,22.61189 -13.47153,60.68831 6.3125,82.28125 12.05572,11.6133 2.33486,11.27465 -6.40625,2.28125 -17.28853,-17.17775 -44.55251,-26.88562 -67.53126,-14.875 -26.83409,10.37236 -28.71291,47.08463 -3.8125,61.5625 26.55546,25.10338 64.04476,29.59603 98.40626,34.84375 -24.75158,0.75836 -38.89737,29.89635 -65.90626,17.46875 -28.90442,-1.42531 -63.32582,8.05792 -82.09375,31.5625 -20.17772,31.88336 24.48967,62.35693 53.5,50.5 -11.91247,13.00748 -36.55318,21.97797 -35.09375,44.40625 1.93205,31.45684 38.53942,37.51509 60.71875,24.4375 7.92063,15.22746 -33.02001,46.49606 -0.125,49.21875 18.16134,-8.1818 32.78484,-0.71791 36.28126,18.25 28.51658,22.6402 55.08968,-12.83978 63.625,-37.9375 22.68335,-23.07358 -0.56373,-56.13595 19.34375,-79.25 22.09338,-24.04931 37.03391,12.3749 24.84375,31.4375 -11.73229,28.60502 -42.71898,48.33866 -41.75,82.40625 -2.83788,22.09545 16.50179,58.09807 41.96875,44.25003 3.39588,-31.3039 28.08725,3.4144 42.25,7.9062 l 5.34375,0.062 4.9375,-1.375 c 27.64523,-16.51474 29.64184,-55.55919 18.15625,-82.74998 -10.13805,-21.57441 -25.79663,-40.75645 -31.09375,-64.625 -2.22215,-10.06465 -13.59867,-50.23673 -0.875,-40.875 -2.42726,25.39259 7.97949,46.17472 22.6875,65.625 21.44638,17.06751 38.83151,42.42147 67.96875,46.1875 26.20065,7.38569 54.03136,2.83302 65.28125,-24.4375 23.91431,-6.25925 62.247476,-29.60927 38.124997,-58.28125 -26.442877,-12.46438 -45.339287,-42.99516 -77.031247,-43.46875 -30.3743,10.67707 -62.25045,-0.48981 -91.40625,-9.75 -20.08372,-1.62477 -2.93701,-11.79436 8.3125,-8.125 33.22033,-8.64501 64.49048,0.40515 93.625,15.375 31.84284,6.65973 68.347646,7.63091 97.437495,-8.21875 28.456058,-16.13679 8.96951,-45.38358 -13.874999,-53.53125 -23.189376,-16.34545 -54.780786,-25.02392 -80.687496,-9.25 -19.61468,4.19966 -48.56637,48.75911 -55.375,11.375 -2.7131,-27.79279 -28.81149,-13.38103 -43.59375,-19.15625 1.69722,-30.14635 38.57885,-42.04668 61,-56.4375 25.90205,-21.27875 53.27345,-53.86553 44.46875,-89.875 -6.64729,-25.00365 -39.18423,-24.45332 -57.1875,-12.25 -29.59202,15.92267 -34.49709,51.34803 -41.5,80.8125 6.65781,36.05782 -16.24542,67.76209 -33.75,97 -17.13462,-0.71483 -11.38773,-40.04717 -2.75,-53.78125 16.19523,-18.58587 24.30513,-44.20002 18.96875,-68.6875 -4.88334,-26.39726 -23.25571,-58.38363 -54.46875,-54.3125 -23.57613,-6.80628 -21.98101,50.48037 -37.5,21.34375 -5.82588,-20.46288 -27.20039,-38.69119 -48.0625,-38.125 z m 58.0625,109.46875 c 1.60134,0.0758 3.95084,2.87664 7.21875,9.875 2.81134,21.48281 53.98057,51.75443 16.96875,65.0625 -9.71215,-11.43772 -17.0314,-24.8344 -21.75,-39.0625 -4.89763,-7.20398 -7.66856,-36.12254 -2.4375,-35.875 z m -49.34375,6.5 c 5.87285,0.0854 13.4373,2.88401 17.34375,7.59375 22.14708,21.66375 47.43447,47.67454 46.75,80.9375 -3.38294,-0.34102 -5.82795,-2.89965 -8.03125,-5.1875 -25.99347,-16.11821 -46.89412,-40.20699 -58.90625,-68.46875 -9.45862,-10.59119 -4.70706,-14.98485 2.84375,-14.875 z m 58.65625,98.53125 c 2.73633,-0.0956 7.56252,1.9639 10.9375,8.15625 l -3.53125,-1.09375 c -10.97515,-3.22547 -10.92439,-6.93966 -7.40625,-7.0625 z m 131.28125,6.21875 c 4.78526,0.0749 7.66455,0.94337 -3,2.90625 -12.44175,-1.79517 -3.15248,-3.00259 3,-2.90625 z m -66.28125,14.15625 c 0.40276,-0.0367 0.80429,0.40644 1.03125,1.6875 -4.15301,4.62583 -2.46969,-1.55645 -1.03125,-1.6875 z m -63.375,0.84375 c 11.28098,-0.0175 -7.51139,16.35744 -19.25,15.71875 -27.92914,15.93898 -59.54994,22.5691 -91.75,23.4375 -4.5638,-1.68183 -9.65111,-2.57042 -13.62501,-5.5625 11.98855,-5.14713 27.86747,-19.70091 40.53126,-30.40625 24.18766,6.95216 49.90402,12.95112 74.46875,-1.28125 4.3858,-1.33814 7.53593,-1.903 9.625,-1.90625 z m 51.875,10.53125 c 0.36418,0.0344 0.705,0.88482 0.71875,3.3125 -2.40911,0.46357 -1.51995,-3.38807 -0.71875,-3.3125 z m 8.3125,6.78125 c 6.09119,0.0418 14.02414,2.93332 4.84375,8.3125 -0.95733,2.1313 -3.24173,-0.7216 -3.5625,-1.46875 -10.58204,-4.68905 -6.65583,-6.88065 -1.28125,-6.84375 z m 33.09375,3.46875 c 6.18748,0.0786 43.34436,7.1915 50.34375,17.25 -18.22255,0.7194 -34.30748,-8.99969 -50.1875,-16.53125 -1.36616,-0.49429 -1.30208,-0.7333 -0.15625,-0.71875 z m -110.40625,2.21875 c 3.60662,0.16816 6.35766,2.26579 7.625,7.46875 -8.18591,32.84705 -45.18543,43.7361 -74.6875,48.40625 0.43802,-15.86714 16.18912,-27.90968 27.6875,-36.9375 9.95354,-2.57186 28.55515,-19.44198 39.375,-18.9375 z m -113.56251,11.28125 c 0.45316,-0.0223 0.9201,0.36833 1.3125,1.4375 -5.04298,6.46963 -3.27618,-1.34065 -1.3125,-1.4375 z m 256.31251,15.625 c 9.06936,0.12526 34.32533,28.74521 11.1875,34.8125 -6.45692,-5.39371 -8.80927,-13.77295 -11.625,-21.34375 -4.00918,-9.82924 -2.84291,-13.51406 0.4375,-13.46875 z m -93.15625,2.0625 c 9.56054,8.9479 13.49848,48.09896 0.34375,65.59375 -16.28336,-11.22376 -13.31956,-34.88625 -10.875,-51.84375 6.6011,-30.54544 9.57465,12.92233 8.6875,23.125 8.00387,7.63843 1.75675,-26.83124 1.84375,-36.875 z m -129.75,31.65625 c 2.93095,0.008 6.56416,1.68913 -1.78125,2.375 -1.47925,-1.7872 0.0227,-2.37959 1.78125,-2.375 z"
       style="fill:#008080"
       inkscape:connector-curvature="0" />
    <path
       sodipodi:type="arc"
       style="opacity:0.80000000000000004;color:#000000;fill:#43b3d7;fill-opacity:1;fill-rule:nonzero;stroke:#333333;stroke-width:32;marker:none;visibility:visible;display:inline;overflow:visible;enable-background:accumulate"
       id="path3050"
       sodipodi:cx="151.42857"
       sodipodi:cy="343.79074"
       sodipodi:rx="297.14285"
       sodipodi:ry="297.14285"
       d="m 448.57143,343.79074 a 297.14285,297.14285 0 1 1 -594.28571,0 297.14285,297.14285 0 1 1 594.28571,0 z"
       transform="translate(212.7115,179.12548)" />
    <path
       inkscape:connector-curvature="0"
       style="fill:#008080"
       d="m -404.88655,226.16745 c -7.54587,0.20479 -15.03966,2.88166 -21.6875,8.78125 -23.61482,22.61189 -13.47153,60.68831 6.3125,82.28125 12.05572,11.6133 2.33486,11.27465 -6.40625,2.28125 -17.28853,-17.17775 -44.5525,-26.88562 -67.53125,-14.875 -26.83409,10.37236 -28.71291,47.08463 -3.8125,61.5625 26.55546,25.10338 64.04475,29.59603 98.40625,34.84375 -24.75158,0.75836 -38.89737,29.89635 -65.90625,17.46875 -28.90442,-1.42531 -63.32582,8.05792 -82.09375,31.5625 -20.17772,31.88336 24.48967,62.35693 53.5,50.5 -11.91247,13.00748 -36.55318,21.97797 -35.09375,44.40625 1.93205,31.45684 38.53942,37.51509 60.71875,24.4375 7.92063,15.22746 -33.02001,46.49606 -0.125,49.21875 18.16133,-8.1818 32.78483,-0.71791 36.28125,18.25 28.51658,22.64018 55.08968,-12.83978 63.625,-37.9375 22.68335,-23.07358 -0.56373,-56.13595 19.34375,-79.25 22.09338,-24.04931 37.03391,12.3749 24.84375,31.4375 -11.73229,28.60502 -42.71898,48.33866 -41.75,82.40625 -2.83788,22.09544 16.50179,58.09811 41.96875,44.25 3.39588,-31.30387 28.08725,3.41448 42.25,7.90625 l 5.34375,0.0625 4.9375,-1.375 c 27.64523,-16.51472 29.64184,-55.55921 18.15625,-82.75 -10.13805,-21.57441 -25.79663,-40.75645 -31.09375,-64.625 -2.22215,-10.06465 -13.59867,-50.23673 -0.875,-40.875 -2.42726,25.39259 7.97949,46.17472 22.6875,65.625 21.44638,17.06751 38.83151,42.42147 67.96875,46.1875 26.20065,7.38569 54.03136,2.83302 65.28125,-24.4375 23.91431,-6.25925 62.24748,-29.60927 38.125,-58.28125 -26.44288,-12.46438 -45.33929,-42.99516 -77.03125,-43.46875 -30.3743,10.67707 -62.25045,-0.48981 -91.40625,-9.75 -20.08372,-1.62477 -2.93701,-11.79436 8.3125,-8.125 33.22033,-8.64501 64.49048,0.40515 93.625,15.375 31.84284,6.65973 68.34765,7.63091 97.4375,-8.21875 28.45606,-16.13679 8.96951,-45.38358 -13.875,-53.53125 -23.18938,-16.34545 -54.78079,-25.02392 -80.6875,-9.25 -19.61468,4.19966 -48.56637,48.75911 -55.375,11.375 -2.7131,-27.79279 -28.81149,-13.38103 -43.59375,-19.15625 1.69722,-30.14635 38.57885,-42.04668 61,-56.4375 25.90205,-21.27875 53.27345,-53.86553 44.46875,-89.875 -6.64729,-25.00365 -39.18423,-24.45332 -57.1875,-12.25 -29.59202,15.92267 -34.49709,51.34803 -41.5,80.8125 6.65781,36.05782 -16.24542,67.76209 -33.75,97 -17.13462,-0.71483 -11.38773,-40.04717 -2.75,-53.78125 16.19523,-18.58587 24.30513,-44.20002 18.96875,-68.6875 -4.88334,-26.39726 -23.25571,-58.38363 -54.46875,-54.3125 -23.57613,-6.80628 -21.98101,50.48037 -37.5,21.34375 -5.82588,-20.46288 -27.20039,-38.69119 -48.0625,-38.125 z m 58.0625,109.46875 c 1.60134,0.0758 3.95084,2.87664 7.21875,9.875 2.81134,21.48281 53.98057,51.75443 16.96875,65.0625 -9.71215,-11.43772 -17.0314,-24.8344 -21.75,-39.0625 -4.89763,-7.20398 -7.66856,-36.12254 -2.4375,-35.875 z m -49.34375,6.5 c 5.87285,0.0854 13.4373,2.88401 17.34375,7.59375 22.14708,21.66375 47.43447,47.67454 46.75,80.9375 -3.38294,-0.34102 -5.82795,-2.89965 -8.03125,-5.1875 -25.99347,-16.11821 -46.89412,-40.20699 -58.90625,-68.46875 -9.45862,-10.59119 -4.70706,-14.98485 2.84375,-14.875 z m 58.65625,98.53125 c 2.73633,-0.0956 7.56252,1.9639 10.9375,8.15625 l -3.53125,-1.09375 c -10.97515,-3.22547 -10.92439,-6.93966 -7.40625,-7.0625 z m 131.28125,6.21875 c 4.78526,0.0749 7.66455,0.94337 -3,2.90625 -12.44175,-1.79517 -3.15248,-3.00259 3,-2.90625 z m -66.28125,14.15625 c 0.40276,-0.0367 0.80429,0.40644 1.03125,1.6875 -4.15301,4.62583 -2.46969,-1.55645 -1.03125,-1.6875 z m -63.375,0.84375 c 11.28098,-0.0175 -7.51139,16.35744 -19.25,15.71875 -27.92914,15.93898 -59.54994,22.5691 -91.75,23.4375 -4.56379,-1.68183 -9.6511,-2.57042 -13.625,-5.5625 11.98854,-5.14713 27.86746,-19.70091 40.53125,-30.40625 24.18766,6.95216 49.90402,12.95112 74.46875,-1.28125 4.3858,-1.33814 7.53593,-1.903 9.625,-1.90625 z m 51.875,10.53125 c 0.36418,0.0344 0.705,0.88482 0.71875,3.3125 -2.40911,0.46357 -1.51995,-3.38807 -0.71875,-3.3125 z m 8.3125,6.78125 c 6.09119,0.0418 14.02414,2.93332 4.84375,8.3125 -0.95733,2.1313 -3.24173,-0.7216 -3.5625,-1.46875 -10.58204,-4.68905 -6.65583,-6.88065 -1.28125,-6.84375 z m 33.09375,3.46875 c 6.18748,0.0786 43.34436,7.1915 50.34375,17.25 -18.22255,0.7194 -34.30748,-8.99969 -50.1875,-16.53125 -1.36616,-0.49429 -1.30208,-0.7333 -0.15625,-0.71875 z m -110.40625,2.21875 c 3.60662,0.16816 6.35766,2.26579 7.625,7.46875 -8.18591,32.84705 -45.18543,43.7361 -74.6875,48.40625 0.43802,-15.86714 16.18912,-27.90968 27.6875,-36.9375 9.95354,-2.57186 28.55515,-19.44198 39.375,-18.9375 z m -113.5625,11.28125 c 0.45316,-0.0223 0.9201,0.36833 1.3125,1.4375 -5.04298,6.46963 -3.27618,-1.34065 -1.3125,-1.4375 z m 256.3125,15.625 c 9.06936,0.12526 34.32533,28.74521 11.1875,34.8125 -6.45692,-5.39371 -8.80927,-13.77295 -11.625,-21.34375 -4.00918,-9.82924 -2.84291,-13.51406 0.4375,-13.46875 z m -93.15625,2.0625 c 9.56054,8.9479 13.49848,48.09896 0.34375,65.59375 -16.28336,-11.22376 -13.31956,-34.88625 -10.875,-51.84375 6.6011,-30.54544 9.57465,12.92233 8.6875,23.125 8.00387,7.63843 1.75675,-26.83124 1.84375,-36.875 z m -129.75,31.65625 c 2.93095,0.008 6.56416,1.68913 -1.78125,2.375 -1.47925,-1.7872 0.0227,-2.37959 1.78125,-2.375 z"
       id="path3913-1" />
    <path
       sodipodi:type="arc"
       style="opacity:0.3;color:#000000;fill:#808080;fill-opacity:1;fill-rule:nonzero;stroke:#4d4d4d;stroke-width:4.30000019;stroke-linecap:round;stroke-linejoin:round;stroke-miterlimit:4;stroke-opacity:1;stroke-dasharray:none;stroke-dashoffset:0;marker:none;visibility:visible;display:inline;overflow:visible;enable-background:accumulate"
       id="path4144"
       sodipodi:cx="-218.496"
       sodipodi:cy="459.8067"
       sodipodi:rx="86.267029"
       sodipodi:ry="86.267029"
       d="m -132.22897,459.8067 a 86.267029,86.267029 0 1 1 -172.53406,0 86.267029,86.267029 0 1 1 172.53406,0 z"
       transform="translate(-102,-8)" />
    <path
       sodipodi:nodetypes="sccczzs"
       id="path7983"
       d="m -137.48566,668.40831 c 19.57988,23.97637 40.53421,19.41145 61.0422,23.46763 25.1046,8.03305 54.69963,23.78683 59.29302,52.15809 2.80536,19.84976 -20.78277,28.58806 -37.44659,24.86499 -26.13484,-3.14485 -44.11589,-22.44567 -54.40495,-46.47337 -10.28907,-24.02771 -32.13846,-37.57256 -53.74025,-60.29178 -21.6018,-22.71922 -58.4492,-96.22674 25.25657,6.27444 z"
       style="fill:#ff0000"
       inkscape:connector-curvature="0"
       inkscape:transform-center-x="-85.035755"
       inkscape:transform-center-y="69.931354" />
    <path
       inkscape:transform-center-y="107.23644"
       inkscape:transform-center-x="-31.926937"
       inkscape:connector-curvature="0"
       style="fill:#ff0000"
       d="m -171.77543,691.29778 c 12.07015,29.53672 -2.61248,46.1708 -9.1986,66.6741 -5.26096,26.61889 -5.72467,61.11271 17.8784,79.31273 16.71864,12.36524 36.53383,-4.57602 41.49528,-21.4477 10.24166,-25.12587 1.63888,-50.90409 -15.13991,-72.08806 -16.7788,-21.184 -18.1844,-47.59852 -28.09203,-78.33563 -9.90763,-30.73711 -58.5441,-100.38761 -6.94314,25.88456 z"
       id="path7985"
       sodipodi:nodetypes="sccczzs" />
    <path
       style="opacity:0.80000000000000004;color:#000000;fill:url(#linearGradient8401);fill-opacity:1;fill-rule:nonzero;stroke:none;stroke-width:2.50000000000000000;marker:none;visibility:visible;display:inline;overflow:visible;enable-background:accumulate"
       d="M 136.65625 358.46875 C 129.77974 358.46875 122.9474 358.71569 116.1875 359.15625 C 85.114838 406.11105 67 462.38541 67 522.90625 C 67 687.01372 200.01753 820.0625 364.125 820.0625 C 365.96994 820.0625 367.81931 820.03348 369.65625 820 C 409.80645 771.43953 433.78125 710.02109 433.78125 643.25 C 433.78125 485.96487 300.76372 358.46875 136.65625 358.46875 z "
       id="path3052" />
    <g
       transform="matrix(1,0,0,-1,850,806.5781)"
       style="color:#000000;fill:#008080;fill-opacity:1;fill-rule:nonzero;stroke:#666666;stroke-width:1;stroke-linecap:butt;stroke-linejoin:miter;stroke-miterlimit:4;stroke-opacity:1;stroke-dasharray:none;stroke-dashoffset:0;marker:none;visibility:visible;display:inline;overflow:visible;enable-background:accumulate"
       id="g8198">
      <path
         sodipodi:nodetypes="sccczzs"
         id="path8200"
         d="m 408.05542,471.5499 c 11.28486,-37.74028 38.57885,-42.04668 61,-56.4375 25.90205,-21.27875 36.20793,-24.00087 36.41004,-91.29713 -0.44068,-25.86841 -33.02169,-28.24565 -51.02496,-16.04233 -29.59202,15.92267 -50.80453,44.96646 -50.98084,78.44228 -0.17631,33.47582 -8.04333,67.40385 -22.37299,104.58468 -14.32966,37.18083 -21.27506,142.09316 26.96875,-19.25 z"
         style="color:#000000;fill:#008080;fill-opacity:1;fill-rule:nonzero;stroke:#666666;stroke-width:1;stroke-linecap:butt;stroke-linejoin:miter;stroke-miterlimit:4;stroke-opacity:1;stroke-dasharray:none;stroke-dashoffset:0;marker:none;visibility:visible;display:inline;overflow:visible;enable-background:accumulate"
         inkscape:connector-curvature="0" />
      <path
         inkscape:transform-center-y="-31.751018"
         inkscape:transform-center-x="-133.32559"
         inkscape:connector-curvature="0"
         style="color:#000000;fill:#008080;fill-opacity:1;fill-rule:nonzero;stroke:#666666;stroke-width:1;stroke-linecap:butt;stroke-linejoin:miter;stroke-miterlimit:4;stroke-opacity:1;stroke-dasharray:none;stroke-dashoffset:0;marker:none;visibility:visible;display:inline;overflow:visible;enable-background:accumulate"
         d="m 430.96733,521.31597 c 24.58032,-3.4211 38.93347,12.61798 87.50399,27.38702 20.11178,6.11547 70.42257,2.09612 94.851,-25.78677 16.65583,-19.79779 -10.05966,-48.79822 -30.38747,-56.53251 -30.02647,-15.08744 -62.37854,-3.15798 -89.88871,15.91693 -27.51018,19.0749 -46.01062,21.57999 -84.68011,31.19371 -38.66949,9.61373 -144.19249,31.03604 22.6013,7.82162 z"
         id="path8202"
         sodipodi:nodetypes="sscczzs" />
      <path
         sodipodi:nodetypes="sccczzs"
         id="path8204"
         d="m 451.79736,554.1481 c 33.66863,5.05225 40.58148,27.22715 55.55927,44.20081 21.29045,19.07616 52.44318,38.07826 82.25649,26.64412 20.63825,-8.38263 16.3245,-35.34176 3.74266,-48.89674 -17.13708,-22.75379 -45.43809,-28.90124 -74.14112,-25.21589 -28.70303,3.68534 -53.54662,-9.28156 -87.09546,-16.92657 -33.54885,-7.64501 -124.2583,-1.40453 19.67816,20.19427 z"
         style="color:#000000;fill:#008080;fill-opacity:1;fill-rule:nonzero;stroke:#666666;stroke-width:1;stroke-linecap:butt;stroke-linejoin:miter;stroke-miterlimit:4;stroke-opacity:1;stroke-dasharray:none;stroke-dashoffset:0;marker:none;visibility:visible;display:inline;overflow:visible;enable-background:accumulate"
         inkscape:connector-curvature="0"
         inkscape:transform-center-x="-108.24639"
         inkscape:transform-center-y="47.767895" />
      <path
         sodipodi:nodetypes="sccczzs"
         id="path8206"
         d="m 406.74964,500.17719 c 15.53445,-26.08415 37.36385,-23.88234 57.26049,-30.22102 23.82798,-10.81623 50.83599,-29.8287 50.56353,-58.61361 -0.60075,-20.09343 -25.79375,-26.1588 -41.88725,-20.58261 -25.70433,6.06081 -40.43826,27.30691 -46.63357,52.40162 -6.19534,25.09473 -25.80521,41.03858 -43.58662,66.09651 -17.78143,25.05791 -42.12774,102.43117 24.28343,-9.08088 z"
         style="color:#000000;fill:#008080;fill-opacity:1;fill-rule:nonzero;stroke:#666666;stroke-width:1;stroke-linecap:butt;stroke-linejoin:miter;stroke-miterlimit:4;stroke-opacity:1;stroke-dasharray:none;stroke-dashoffset:0;marker:none;visibility:visible;display:inline;overflow:visible;enable-background:accumulate"
         inkscape:connector-curvature="0"
         inkscape:transform-center-x="-75.257025"
         inkscape:transform-center-y="-77.732472" />
      <path
         sodipodi:nodetypes="ccczzcc"
         id="path8208"
         d="m 218.08304,592.76453 c -28.69442,4.73448 -54.6715,11.50972 -66.80388,42.33948 -8.05496,21.63837 5.28225,41.135 23.91724,39.78461 28.53716,0.88297 52.55513,-17.59726 69.62015,-42.63324 17.06504,-25.03604 43.71533,-36.45597 72.44993,-58.13614 28.73461,-21.68013 130.71241,-122.67261 15.01297,-23.30751 -20.56284,13.19219 -92.19392,40.80525 -114.19641,41.9528 z"
         style="color:#000000;fill:#008080;fill-opacity:1;fill-rule:nonzero;stroke:#666666;stroke-width:1;stroke-linecap:butt;stroke-linejoin:miter;stroke-miterlimit:4;stroke-opacity:1;stroke-dasharray:none;stroke-dashoffset:0;marker:none;visibility:visible;display:inline;overflow:visible;enable-background:accumulate"
         inkscape:connector-curvature="0"
         inkscape:transform-center-x="96.574427"
         inkscape:transform-center-y="68.464472" />
      <path
         inkscape:transform-center-y="-3.4847308"
         inkscape:transform-center-x="124.35781"
         inkscape:connector-curvature="0"
         style="color:#000000;fill:#008080;fill-opacity:1;fill-rule:nonzero;stroke:#666666;stroke-width:1;stroke-linecap:butt;stroke-linejoin:miter;stroke-miterlimit:4;stroke-opacity:1;stroke-dasharray:none;stroke-dashoffset:0;marker:none;visibility:visible;display:inline;overflow:visible;enable-background:accumulate"
         d="m 271.1024,530.56532 c -36.46155,-7.05646 -41.05096,5.10364 -61.85814,17.72046 -28.00329,12.5298 -64.30678,23.70015 -91.63819,0.43145 -18.774565,-16.60779 1.67735,-38.16696 18.9369,-48.01287 24.8451,-18.00192 71.25511,-24.05891 99.84961,-9.49185 28.59456,14.56711 24.24569,20.7919 61.39073,25.02993 37.14503,4.238 129.19549,44.48975 -26.6809,14.3229 z"
         id="path8210"
         sodipodi:nodetypes="cccczzsc" />
      <path
         sodipodi:nodetypes="cscczcc"
         id="path8212"
         d="m 298.43083,496.91284 c -28.43202,-33.08518 -62.88205,-5.6948 -88.93676,-16.47193 -34.29835,-14.18699 -45.52496,-26.81555 -54.35166,-68.73166 -5.62991,-29.38715 3.24952,-44.12475 25.86545,-41.01626 4.10498,1.9199 58.22292,14.8075 74.24724,49.35335 16.02432,34.54595 54.0841,71.97347 85.09823,102.86988 16.46887,66.95822 23.78674,29.22679 -41.9225,-26.00338 z"
         style="color:#000000;fill:#008080;fill-opacity:1;fill-rule:nonzero;stroke:#666666;stroke-width:1;stroke-linecap:butt;stroke-linejoin:miter;stroke-miterlimit:4;stroke-opacity:1;stroke-dasharray:none;stroke-dashoffset:0;marker:none;visibility:visible;display:inline;overflow:visible;enable-background:accumulate"
         inkscape:connector-curvature="0"
         inkscape:transform-center-x="119.28209"
         inkscape:transform-center-y="-94.595775" />
      <path
         inkscape:transform-center-y="-129.23793"
         inkscape:transform-center-x="77.455664"
         inkscape:connector-curvature="0"
         style="color:#000000;fill:#008080;fill-opacity:1;fill-rule:nonzero;stroke:#666666;stroke-width:1;stroke-linecap:butt;stroke-linejoin:miter;stroke-miterlimit:4;stroke-opacity:1;stroke-dasharray:none;stroke-dashoffset:0;marker:none;visibility:visible;display:inline;overflow:visible;enable-background:accumulate"
         d="m 325.76296,474.24649 c -12.06124,-41.92297 -41.27331,-24.42928 -65.26509,-38.76558 -27.71435,-21.85816 -37.56045,-55.02955 -40.91888,-105.81845 -1.42866,-29.88745 33.91079,-28.8399 54.57956,-19.14737 31.66643,10.6864 48.94926,35.88817 49.12252,73.96919 0.17322,38.08112 16.05764,113.54028 40.859,138.43194 -12.92753,67.73113 0,25.2874 -38.37711,-48.66973 z"
         id="path8214"
         sodipodi:nodetypes="cccczcc" />
      <path
         sodipodi:nodetypes="cccczzsc"
         id="path8216"
         d="m 360.53097,468.02229 c 4.2546,-41.2287 -16.43459,-40.2705 -27.27807,-62.17894 -11.04488,-29.91836 -16.21801,-86.08098 1.30756,-118.73493 12.53629,-22.49143 34.7474,-10.83491 43.24789,7.3984 15.28944,25.87439 18.68942,69.82085 8.14994,103.03267 -10.53953,33.21193 -11.0209,57.04186 -13.00241,98.75634 -1.98146,41.71446 -30.61357,147.98275 -12.42492,-28.27354 z"
         style="color:#000000;fill:#008080;fill-opacity:1;fill-rule:nonzero;stroke:#666666;stroke-width:1;stroke-linecap:butt;stroke-linejoin:miter;stroke-miterlimit:4;stroke-opacity:1;stroke-dasharray:none;stroke-dashoffset:0;marker:none;visibility:visible;display:inline;overflow:visible;enable-background:accumulate"
         inkscape:connector-curvature="0"
         inkscape:transform-center-x="4.7620553"
         inkscape:transform-center-y="-137.95251" />
      <path
         inkscape:transform-center-y="94.595774"
         inkscape:transform-center-x="-119.28209"
         inkscape:connector-curvature="0"
         style="color:#000000;fill:#008080;fill-opacity:1;fill-rule:nonzero;stroke:#666666;stroke-width:1;stroke-linecap:butt;stroke-linejoin:miter;stroke-miterlimit:4;stroke-opacity:1;stroke-dasharray:none;stroke-dashoffset:0;marker:none;visibility:visible;display:inline;overflow:visible;enable-background:accumulate"
         d="m 414.16138,563.32453 c 35.57394,25.24884 73.99431,26.11007 101.77769,29.14627 34.30149,8.323 58.2687,-1.82048 67.0954,40.09563 5.62991,29.38715 -19.36695,35.59199 -41.98288,32.4835 -35.2145,-0.82983 -49.69016,12.68695 -65.71448,-21.8589 -16.02432,-34.54595 -67.49942,-66.62984 -98.51355,-97.52625 -14.8927,-21.565 -8.21981,-14.67508 37.33782,17.65975 z"
         id="path8218"
         sodipodi:nodetypes="sccczcs" />
      <path
         sodipodi:nodetypes="cccczcc"
         id="path8220"
         d="m 380.08883,553.88705 c 12.06124,41.92297 61.27331,81.33905 85.26509,95.67535 27.71435,21.85816 42.77491,21.8466 46.13334,72.6355 1.42866,29.88745 -49.08014,5.61183 -69.74891,-4.0807 -31.66643,-10.6864 -36.62416,-32.56988 -35.84934,-55.95559 0.77483,-23.38571 -19.33671,-49.7177 -34.65723,-90.7268 -7.09171,-87.73113 -11.40724,-41.75838 8.85705,-17.54776 z"
         style="color:#000000;fill:#008080;fill-opacity:1;fill-rule:nonzero;stroke:#666666;stroke-width:1;stroke-linecap:butt;stroke-linejoin:miter;stroke-miterlimit:4;stroke-opacity:1;stroke-dasharray:none;stroke-dashoffset:0;marker:none;visibility:visible;display:inline;overflow:visible;enable-background:accumulate"
         inkscape:connector-curvature="0"
         inkscape:transform-center-x="-77.455659"
         inkscape:transform-center-y="129.23793" />
      <path
         inkscape:transform-center-y="130.385"
         inkscape:transform-center-x="-5.765425"
         inkscape:connector-curvature="0"
         style="color:#000000;fill:#008080;fill-opacity:1;fill-rule:nonzero;stroke:#666666;stroke-width:1;stroke-linecap:butt;stroke-linejoin:miter;stroke-miterlimit:4;stroke-opacity:1;stroke-dasharray:none;stroke-dashoffset:0;marker:none;visibility:visible;display:inline;overflow:visible;enable-background:accumulate"
         d="m 362.1838,589.82354 c -5.15106,38.96706 19.89739,38.06143 33.02561,58.76806 13.37207,28.27716 19.63519,81.35893 -1.58306,112.22161 -15.17771,21.25765 -58.06876,22.24056 -68.36032,5.00745 -18.51095,-24.45502 -6.62733,-77.99076 6.13285,-109.38072 12.76023,-31.39005 13.34304,-53.91277 15.74205,-93.33896 2.39896,-39.42618 37.06392,-139.86503 15.04288,26.72256 z"
         id="path8222"
         sodipodi:nodetypes="cccczzsc" />
      <path
         inkscape:transform-center-y="88.048705"
         inkscape:transform-center-x="86.454583"
         inkscape:connector-curvature="0"
         style="color:#000000;fill:#008080;fill-opacity:1;fill-rule:nonzero;stroke:#666666;stroke-width:1;stroke-linecap:butt;stroke-linejoin:miter;stroke-miterlimit:4;stroke-opacity:1;stroke-dasharray:none;stroke-dashoffset:0;marker:none;visibility:visible;display:inline;overflow:visible;enable-background:accumulate"
         d="m 323.68642,572.02568 c -14.70821,36.54238 -42.28259,38.32014 -65.93231,50.58777 -27.74938,18.8062 -35.9879,27.25343 -42.37876,94.24585 -1.94045,25.79929 28.00976,24.47857 47.05913,13.98284 30.93108,-13.13344 54.725,-40.10309 57.97952,-73.42079 3.25452,-33.31771 14.20874,-66.37836 31.89739,-102.08361 17.68864,-35.70525 34.25397,-139.53408 -28.62497,16.68794 z"
         id="path8224"
         sodipodi:nodetypes="sccczzs" />
      <path
         inkscape:transform-center-y="47.767895"
         inkscape:transform-center-x="-108.24639"
         inkscape:connector-curvature="0"
         style="color:#000000;fill:#008080;fill-opacity:1;fill-rule:nonzero;stroke:#666666;stroke-width:1;stroke-linecap:butt;stroke-linejoin:miter;stroke-miterlimit:4;stroke-opacity:1;stroke-dasharray:none;stroke-dashoffset:0;marker:none;visibility:visible;display:inline;overflow:visible;enable-background:accumulate"
         d="m 451.79736,554.1481 c 33.66863,5.05225 40.58148,27.22715 55.55927,44.20081 21.29045,19.07616 52.44318,38.07826 82.25649,26.64412 20.63825,-8.38263 16.3245,-35.34176 3.74266,-48.89674 -17.13708,-22.75379 -45.43809,-28.90124 -74.14112,-25.21589 -28.70303,3.68534 -53.54662,-9.28156 -87.09546,-16.92657 -33.54885,-7.64501 -124.2583,-1.40453 19.67816,20.19427 z"
         id="path8226"
         sodipodi:nodetypes="sccczzs" />
      <path
         inkscape:transform-center-y="47.152747"
         inkscape:transform-center-x="75.263557"
         inkscape:connector-curvature="0"
         style="color:#000000;fill:#008080;fill-opacity:1;fill-rule:nonzero;stroke:#666666;stroke-width:1;stroke-linecap:butt;stroke-linejoin:miter;stroke-miterlimit:4;stroke-opacity:1;stroke-dasharray:none;stroke-dashoffset:0;marker:none;visibility:visible;display:inline;overflow:visible;enable-background:accumulate"
         d="m 321.98043,550.16391 c -30.34406,0.96951 -38.98241,21.13754 -54.1589,35.48079 -20.99741,15.61641 -50.70625,30.04874 -75.76338,15.87886 -17.29253,-10.25062 -10.40716,-35.23196 2.26144,-46.61622 17.74418,-19.5599 43.46714,-22.17044 68.42537,-15.44635 24.95825,6.72408 48.40122,-2.71947 78.93475,-6.15191 30.53352,-3.43246 110.02428,12.71014 -19.69928,16.85484 z"
         id="path8228"
         sodipodi:nodetypes="sccczzs" />
    </g>
    <path
       transform="matrix(0.76190476,0,0,0.73023058,1004.1701,354.84081)"
       d="m 931.42859,530.93359 a 390,390 0 1 1 -780,0 390,390 0 1 1 780,0 z"
       sodipodi:ry="390"
       sodipodi:rx="390"
       sodipodi:cy="530.93359"
       sodipodi:cx="541.42859"
       id="path8288"
       style="opacity:0.8;color:#000000;fill:#f05a28;fill-opacity:1;fill-rule:nonzero;stroke:none;stroke-width:2.5;marker:none;visibility:visible;display:inline;overflow:visible;enable-background:accumulate"
       sodipodi:type="arc" />
    <path
       sodipodi:type="arc"
       style="opacity:0.8;color:#000000;fill:#ffffff;fill-opacity:1;fill-rule:nonzero;stroke:none;stroke-width:2.5;marker:none;visibility:visible;display:inline;overflow:visible;enable-background:accumulate"
       id="path8331"
       sodipodi:cx="541.42859"
       sodipodi:cy="530.93359"
       sodipodi:rx="390"
       sodipodi:ry="390"
       d="m 931.42859,530.93359 a 390,390 0 1 1 -780,0 390,390 0 1 1 780,0 z"
       transform="matrix(0.76190476,0,0,0.73023058,1358.1684,546.36981)" />
    <g
       id="g8514"
       transform="matrix(1.2215346,0,0,1.2215346,-73.891531,-117.49192)">
      <path
         d="m 352.3125,345.4375 c -11.07755,0.14366 -24.81341,4.4255 -31.25,17.4375 l -0.0312,-0.0312 c -0.0493,0.0931 -0.0764,0.18805 -0.125,0.28125 -0.0274,0.0567 -0.0667,0.0992 -0.0937,0.15625 l 0.0312,0 c -4.47889,8.65116 -6.0803,17.60561 -6.25,26.3125 -5.77028,-4.4597 -12.03608,-8.21802 -18.65625,-11.03125 -0.0855,-0.0423 -0.19511,-0.0828 -0.28125,-0.125 -0.13712,-0.0577 -0.26889,-0.13057 -0.40625,-0.1875 l 0,0.0312 c -10.21073,-4.93542 -24.94549,-9.26208 -38.5625,-1.03125 a 11.335607,11.335607 0 0 0 -0.40625,0.25 c -6.42494,4.28808 -9.38669,11.49651 -10.09375,17.125 -0.67908,5.40569 0.0189,10.00185 0.59375,13.59375 0.0189,0.16022 0.0436,0.33937 0.0625,0.5 0.35342,3.00517 0.83416,6.21291 1.25,9.34375 -8.20043,-2.40726 -17.03636,-3.07987 -25.96875,-1.125 a 11.335607,11.335607 0 0 0 -0.90625,0.25 c -9.0486,2.80583 -15.34604,9.88968 -18.375,17.5 -2.95836,7.43293 -3.31831,15.68216 -0.625,23.46875 l -0.0312,0 c 0.0363,0.11785 0.0879,0.22635 0.125,0.34375 0.0259,0.0723 0.0361,0.14656 0.0625,0.21875 l 0.0312,0 c 3.74666,11.64355 11.56717,21.0307 21.25,27.3125 -0.4752,2.40244 -0.64031,4.76908 -0.5625,7.09375 -12.05941,-0.87729 -24.63448,1.33766 -35.5625,9.125 l -0.0312,-0.0312 c -0.16375,0.1 -0.30669,0.24021 -0.46875,0.34375 -0.13149,0.0962 -0.27526,0.15216 -0.40625,0.25 l 0.0312,0.0312 c -9.87807,6.54024 -16.38404,19.5993 -10.6875,32.40625 l -0.0312,0 c 0.0245,0.0574 0.0691,0.0991 0.0937,0.15625 0.019,0.0439 0.0434,0.0812 0.0625,0.125 6.79401,15.591 21.05207,23.13452 31.75,28.71875 a 11.335607,11.335607 0 0 0 0.59375,0.28125 c 3.96643,1.78533 8.08571,3.18544 12.25,4.375 -3.08403,3.51949 -5.82171,7.48802 -7.875,12.125 a 11.335607,11.335607 0 0 0 -0.0312,0.0937 c -5.1899,12.0135 -9.23607,25.57996 -9.125,40.03125 -0.001,0.0836 3.6e-4,0.16645 0,0.25 -0.0261,6.08066 1.64619,12.04813 5.28125,17.3125 3.54384,5.13225 9.594,9.51554 16.90625,10.53125 l 0,0.0625 c 0.18433,0.0326 0.3483,0.0332 0.53125,0.0625 0.10832,0.0123 0.20363,0.0517 0.3125,0.0625 l 0,-0.0312 c 10.6315,1.59988 18.23654,-1.91586 24.0625,-4.46875 -1.05661,7.49705 -1.65575,15.01118 -1.875,22.4375 a 11.335607,11.335607 0 0 0 0,0.46875 c 0.17589,14.35778 11.4937,24.73046 24.46875,26.375 l 0,0.0312 c 0.0747,0.0119 0.14413,0.0197 0.21875,0.0312 0.12628,0.015 0.24842,0.0492 0.375,0.0625 l 0,-0.0312 c 16.14834,2.3597 30.17063,-4.04927 41.1875,-9.75 a 11.335607,11.335607 0 0 0 0.40625,-0.21875 c 2.29181,-1.30817 4.4151,-2.81114 6.46875,-4.40625 1.62894,7.71993 4.30347,15.37235 8.65625,22.625 0.017,0.0284 0.0142,0.0654 0.0312,0.0937 l 0.0312,0 c 6.90063,11.56909 21.6959,16.18671 33.875,9.5 0.0426,-0.0223 0.0826,-0.0401 0.125,-0.0625 0.0833,-0.0463 0.16696,-0.0776 0.25,-0.125 l -0.0312,-0.0312 c 14.62833,-7.8771 19.5237,-22.85391 23,-33.28125 a 11.335607,11.335607 0 0 0 0.15625,-0.46875 c 0.85131,-2.96519 1.53218,-5.95603 2.125,-8.96875 7.31253,9.27866 16.62449,16.91494 26.875,22.34375 0.16009,0.0848 0.30824,0.19752 0.46875,0.28125 l 0.0312,-0.0312 c 6.56505,3.73623 14.12645,5.82475 22.09375,5.625 8.16403,-0.20468 17.11913,-3.15778 23.5625,-10.21875 a 11.335607,11.335607 0 0 0 0.375,-0.4375 c 5.21963,-6.36685 6.37398,-13.92353 6.4375,-19.6875 0.0635,-5.76397 -0.58346,-10.51797 -0.5,-13.46875 a 11.335607,11.335607 0 0 0 -0.0312,-1.0625 c -0.4605,-6.94755 -0.98251,-14.94656 -3.3125,-23.09375 6.88119,-5.7381 11.04164,-14.50991 9.78125,-24.28125 l 0.0312,0 c -0.0108,-0.1305 -0.0506,-0.24507 -0.0625,-0.375 -0.0243,-0.16978 -0.004,-0.32969 -0.0312,-0.5 l -0.0625,0 c -0.7498,-7.26314 -3.16781,-13.61982 -6.65625,-19.1875 11.04,3.61852 23.02471,4.94526 35.4375,1.75 a 11.335607,11.335607 0 0 0 0.1875,-0.0312 c 17.10674,-4.68675 34.63381,-16.20204 41.09375,-35.625 0.0149,-0.0449 0.0477,-0.08 0.0625,-0.125 l -0.0312,0 c 4.05428,-12.02646 -0.90416,-24.08314 -9.65625,-31.25 -0.21546,-0.1942 -0.43887,-0.37201 -0.65625,-0.5625 -4.25225,-3.72614 -8.93886,-6.5862 -13.75,-9.03125 5.58649,-5.31981 10.1426,-11.78482 13.0625,-19.21875 0.005,-0.013 0.0262,-0.0183 0.0312,-0.0312 l -0.0312,0 c 2.62652,-6.66783 3.19347,-13.93597 1.3125,-21.09375 -1.69422,-6.44711 -6.01389,-12.9039 -12.6875,-16.8125 0.0363,-2.91574 -0.23323,-5.863 -1,-8.84375 -1.66542,-6.47413 -5.98597,-13.18205 -12.96875,-17.03125 l 0.0312,-0.0625 c -0.16781,-0.0997 -0.3322,-0.15392 -0.5,-0.25 -0.0335,-0.0192 -0.0602,-0.0434 -0.0937,-0.0625 -12.68558,-7.20987 -25.30263,-4.29198 -32.875,-4.25 a 11.335607,11.335607 0 0 0 -0.15625,0 c -1.69114,0.0305 -3.84723,-0.30208 -6.34375,-0.6875 2.21575,-6.32797 3.26648,-12.79996 3.78125,-18.78125 0.0357,-0.41511 0.15686,-0.87171 0.1875,-1.28125 l -0.0312,0 c 0.58944,-3.55602 0.90823,-7.57118 -0.21875,-12.25 -1.2558,-5.21364 -5.51445,-11.86669 -12.4375,-14.34375 a 11.335607,11.335607 0 0 0 -0.4375,-0.125 c -14.27814,-4.46086 -26.34168,1.69494 -34.1875,4.40625 a 11.335607,11.335607 0 0 0 -0.6875,0.25 c -8.01645,3.35727 -16.05477,6.91824 -23.96875,10.59375 -1.66373,-10.75698 -5.39954,-21.46179 -12.90625,-30.75 a 11.335607,11.335607 0 0 0 -0.59375,-0.6875 c -9.84827,-10.38947 -23.52284,-13.75644 -35.75,-13.5 -0.0408,8.5e-4 -0.0843,-9.4e-4 -0.125,0 z m -83,201.75 c 0.0369,0.006 0.20687,0.1152 0.25,0.125 -0.33016,-0.0209 -0.5625,-0.0489 -0.75,-0.0625 0.10458,-0.0216 0.14072,-0.12084 0.5,-0.0625 z"
         id="path8463"
         style="color:#000000;fill:#005454;fill-opacity:1;fill-rule:nonzero;stroke:none;stroke-width:4;marker:none;visibility:visible;display:inline;overflow:visible;enable-background:accumulate"
         inkscape:original="M 352.5625 356.78125 C 344.15487 356.86825 334.88732 360.09677 331.0625 368.15625 C 323.40063 382.63024 325.8371 399.9865 328.8125 415.4375 C 332.03682 433.38541 341.68014 449.46079 344.21875 467.53125 C 345.76011 476.67031 346.36389 485.94721 346.90625 495.21875 C 338.66834 476.43767 333.23696 456.48707 331.34375 436.0625 C 327.62619 414.42551 310.76172 396.94855 290.90625 388.71875 C 282.36353 384.49344 271.29235 381.66072 262.5625 386.9375 C 256.04139 391.28977 256.94778 400.17623 258.03125 406.90625 C 259.31712 417.81535 260.58358 428.85563 264.09375 439.3125 C 253.34629 430.35648 238.56263 424.93605 224.5625 428 C 213.79665 431.33832 209.33455 444.70944 213.03125 454.8125 C 216.74725 466.87279 226.78715 476.4658 238.1875 480.78125 C 231.43773 488.64534 234.31703 500.61542 240.125 508.15625 C 225.01915 503.03064 206.75712 501.93469 193.40625 511.90625 C 187.17544 515.71038 183.13686 523.75698 186.375 530.8125 C 191.20337 542.12907 202.64503 548.73336 213.09375 554.1875 C 225.35973 559.70854 239.14939 561.99819 252.625 561.03125 C 240.57041 565.85156 228.62391 573.34786 223.1875 585.625 C 218.36538 596.78718 214.864 608.96535 215 621.28125 C 214.9085 628.93223 219.55058 637.3353 227.8125 638.15625 C 236.23397 639.64442 244.01307 634.87837 251.75 632.34375 C 256.88074 630.19662 261.91492 627.75926 266.65625 624.8125 C 262.48553 638.67872 260.64589 653.2508 260.21875 667.71875 C 260.31775 675.80028 267.34895 682.24363 275.125 683.0625 C 287.43202 685.02284 299.30448 679.98593 309.90625 674.5 C 320.49582 668.45542 328.19592 658.07949 331.375 646.34375 C 330.49341 663.46453 331.383 681.82867 340.40625 696.8125 C 344.17261 703.18952 352.84966 705.83135 359.34375 702.125 C 369.41934 696.84257 373.78888 685.25683 377.1875 675.0625 C 383.10171 654.46265 381.97194 631.95395 374.90625 611.8125 C 368.36606 589.46619 369.26747 565.8989 367.25 542.875 C 370.56628 556.88805 377.12282 569.95834 380.25 584.0625 C 384.513 599.55395 386.04899 615.60398 386.34375 631.65625 C 388.53282 653.46202 403.85753 671.89385 422.8125 681.78125 C 432.40902 687.40715 446.81189 688.42972 454.875 679.59375 C 460.91421 672.22718 457.9726 662.0155 458.21875 653.3125 C 457.56858 643.50347 456.78609 633.20061 452.15625 624.40625 C 460.03448 622.29654 466.10145 614.46572 464.75 606.125 C 463.43586 590.24566 450.36888 578.72041 437.25 571.53125 C 425.35273 563.45311 409.02565 566.21375 398.09375 556.3125 C 392.68855 551.8385 389.65683 545.20302 385.90625 539.28125 C 407.20546 544.72539 429.90202 548.03485 447.96875 561.53125 C 463.40007 572.28068 482.79032 580.81092 501.84375 575.90625 C 516.2339 571.96377 530.38635 562.23579 535.21875 547.5625 C 537.64947 540.46228 534.45913 532.68743 528.71875 528.25 C 519.31883 519.77794 507.06726 515.28041 494.75 513.125 C 507.84604 509.39113 519.44378 499.61864 524.4375 486.875 C 527.87166 478.17842 525.93119 466.23409 516.71875 462.0625 C 514.93709 461.16726 513.01989 460.62115 511.125 460.15625 C 513.71917 451.95601 512.22283 441.20555 503.875 436.90625 C 495.55055 431.96142 485.47369 433.88637 476.25 433.9375 C 466.67404 434.11035 456.32625 430.31345 447.25 434.75 C 457.88175 427.08068 461.40879 413.49587 462.34375 401 C 463.37428 395.61441 463.11652 388.07008 457.15625 385.9375 C 448.04939 383.09228 438.57258 387.29834 430.03125 390.25 C 421.55524 393.79973 413.08225 397.48076 404.84375 401.34375 C 398.89351 404.57887 393.84138 409.55061 391.0625 415.78125 C 392.45084 398.97669 390.8716 380.24032 379.96875 366.75 C 373.03649 359.43679 362.42841 356.55466 352.5625 356.78125 z M 387.65625 434.40625 L 387.65625 435.78125 C 388.25215 450.87994 379.11433 463.94621 373.34375 477.34375 C 370.02115 485.01726 365.76832 492.50967 363.875 500.65625 C 363.66485 503.31425 363.20578 511.44726 362.71875 504.1875 C 362.1463 492.5875 357.36767 480.31696 362.28125 469.09375 C 367.56294 458.64247 381.18359 454.91963 384.71875 443.25 C 385.87788 440.36364 386.81728 437.40113 387.65625 434.40625 z M 442.8125 438.09375 L 442.34375 438.59375 L 442.3125 438.625 C 435.96345 445.73992 433.72672 455.57448 427.0625 462.5625 C 411.3397 481.35587 390.63366 495.10462 372.75 511.71875 C 379.34806 490.85071 395.14561 474.58199 411.5 460.71875 C 421.41455 452.40121 432.57191 445.91404 442.8125 438.09375 z M 287.09375 465.59375 L 287.6875 465.90625 L 287.84375 465.96875 C 300.99496 472.27208 316.91199 475.89989 325.625 488.59375 C 327.48677 491.18823 329.86433 495.17905 330.53125 497.4375 C 316.44171 486.32488 299.85386 478.33978 287.09375 465.59375 z M 451.59375 487.65625 L 450.5 489.15625 C 444.3799 498.66125 435.26034 507.2041 423.78125 509.21875 C 409.1414 511.76289 394.33892 513.72123 379.90625 517.21875 C 393.08814 507.59489 406.40247 497.38815 422.21875 493.09375 C 431.73573 490.16406 441.6672 488.65033 451.59375 487.65625 z M 305.59375 499.6875 C 305.61694 499.65253 305.76789 499.72089 306.15625 499.9375 C 315.75503 503.74927 325.44832 507.74521 334.5625 512.6875 C 324.0074 513.15502 313.57938 508.9453 306.71875 500.90625 C 306.69467 500.7463 305.52418 499.7924 305.59375 499.6875 z M 458.625 514.40625 C 459.94886 514.48665 465.29855 514.10959 461.1875 515.0625 C 446.47457 519.3549 433.04667 527.27203 418.40625 531.6875 C 407.36753 534.35147 396.20275 530.18876 385.15625 529.46875 C 381.03189 529.12259 377.1734 528.23242 383.3125 528.53125 C 398.79597 529.09815 413.8519 525.28936 428.4375 520.5625 C 438.28966 517.62256 448.25973 514.61329 458.625 514.40625 z M 303.0625 521.03125 C 307.85708 521.00705 312.60322 521.49948 317.3125 522.25 C 303.82174 523.80553 290.41192 529.25218 276.75 526.625 C 275.47502 526.35522 271.35713 525.04819 272.28125 524.84375 C 281.505 525.71232 290.30965 522.35805 299.21875 521.25 C 300.49877 521.119 301.77595 521.04635 303.0625 521.03125 z M 345.65625 532.53125 C 345.84381 532.62826 346.20782 533.95489 346.34375 534 C 342.74774 545.31068 337.47345 556.03771 332.5625 566.78125 C 330.26098 575.343 324.04181 583.52768 314.78125 584.90625 C 308.64114 586.28656 302.22633 586.36067 296.21875 588.125 C 310.29612 567.71675 328.46679 550.67659 345.53125 532.9375 C 345.5445 532.61098 345.59373 532.49891 345.65625 532.53125 z M 329.53125 535.53125 L 329.125 535.9375 C 322.73297 542.46811 315.78434 548.38974 309.125 554.625 C 298.71701 563.16585 284.45918 560.57644 272.21875 558.90625 C 270.75732 558.62277 267.05876 558.58442 266.6875 558.375 C 278.35784 554.97739 287.17947 545.91053 298.46875 541.71875 C 308.61024 538.49923 319.40014 538.83276 329.53125 535.53125 z M 352.75 547.15625 C 352.91811 547.21778 353.08324 547.41716 353.25 547.75 C 356.40776 553.19982 354.98834 560.10696 356.25 566.1875 C 357.82638 577.22962 357.95516 590.14806 349.125 598.28125 C 343.15822 604.04659 337.36828 610.68342 335.875 619.21875 C 335.10523 621.90618 334.48584 624.64744 333.90625 627.34375 C 334.75431 602.05387 339.99984 576.86385 349.40625 553.375 C 350.36355 552.22659 351.57322 546.72557 352.75 547.15625 z M 392.28125 568.625 L 393.25 570 C 396.27202 574.34098 398.88066 579.01639 400.53125 584.0625 C 396.72162 579.57287 394.05977 574.1448 392.28125 568.625 z "
         inkscape:radius="11.334474"
         sodipodi:type="inkscape:offset" />
      <path
         inkscape:connector-curvature="0"
         id="path8151"
         d="m 356.98988,356.12312 c -8.85554,-0.0952 -17.03922,2.68442 -20.34115,8.21346 -12.66991,16.73836 -4.54148,53.37724 4.19229,74.86226 8.46386,20.82102 9.10478,36.04073 10.63044,61.51538 -9.94801,-21.53127 -16.16748,-41.78596 -18.15945,-62.17845 -2.22757,-22.80446 -18.50606,-41.25402 -39.67699,-50.24327 -13.03844,-7.18385 -33.54031,-8.09747 -32.21216,9.56098 2.1752,22.80162 4.67482,35.6851 8.96208,44.46818 -10.17919,-9.87064 -22.53881,-16.17346 -36.46861,-15.74246 -12.75481,-0.92428 -21.87601,12.41798 -16.36275,27.22847 5.37422,13.65652 14.71881,20.41335 25.9665,24.36232 -9.31123,7.66474 -4.66646,23.19604 3.48645,30.52241 0.17272,0.1904 0.35981,0.3704 0.53473,0.55612 -17.35421,-6.44664 -37.35597,-9.65681 -53.04526,3.70033 -12.85034,11.36729 1.14848,26.11476 12.96187,32.85384 17.00535,12.3215 48.78828,16.47282 68.35993,6.50232 19.57169,-9.97053 16.58432,-14.23202 42.00842,-17.13276 5.30237,-0.60496 12.23818,-2.29633 18.92946,-4.38479 -4.9196,5.35588 -10.98963,11.30726 -18.48028,17.60332 -19.46044,22.64532 -43.04044,3.89566 -60.87371,11.27212 -23.47568,9.71036 -31.15437,18.36659 -37.19585,47.05628 -3.85342,20.11418 2.2093,30.19027 17.68888,28.06265 1.90167,-0.88941 19.48491,-5.2146 34.05163,-15.25051 -4.27321,11.83379 -6.49611,26.09703 -7.63595,43.33455 -0.97785,20.45661 23.19873,19.74569 37.34557,13.11159 21.67425,-7.31436 33.50526,-24.56353 33.62385,-50.62828 0.0989,-21.73863 7.6804,-61.26585 20.0417,-83.67461 1.29416,2.46531 2.4722,4.51493 3.50783,6.20287 0.53788,6.05581 1.17354,12.80878 1.94642,20.29837 2.91208,28.21919 -11.25091,27.5692 -18.67279,42.56454 -7.55972,20.47777 -11.09711,58.90748 0.89835,81.25763 8.58052,15.39437 23.78447,7.41064 29.60267,-5.06924 10.46494,-17.70986 12.79639,-47.78825 5.58259,-70.52025 -7.21383,-22.73207 -7.54166,-39.03824 -8.89791,-67.58992 -0.20845,-4.38822 -0.86627,-9.82984 -1.75392,-15.44302 0.97243,0.77843 1.84521,1.47001 2.67365,2.11754 1.25209,6.31359 2.85939,12.4661 4.64146,17.08998 9.80801,25.4486 15.194,48.67702 15.31468,71.58971 0.12068,22.91269 14.63141,42.78858 34.88581,53.68693 12.32243,8.35262 34.62697,6.7117 34.92859,-10.99406 -0.076,-25.29296 -2.25372,-37.2423 -7.12261,-45.30236 7.12803,-1.80798 13.10675,-6.55608 13.34687,-14.58744 0.18649,-19.70198 -18.29857,-32.72295 -34.60775,-40.12617 -13.61835,-4.33854 -28.55241,-2.82995 -39.18504,-20.68337 -2.40902,-4.04503 -4.60345,-7.6507 -6.67344,-10.99406 2.81161,0.6623 5.50504,1.31525 7.78568,1.88225 26.46752,6.58016 39.11391,8.29053 57.94338,21.34644 18.82948,13.05591 40.98501,21.21378 61.53678,10.88711 13.91347,-5.29377 32.19048,-25.1424 20.79032,-38.69309 -10.87245,-12.40994 -29.23267,-17.91983 -44.53235,-19.10057 12.19729,-1.74059 23.16712,-7.08348 30.86464,-17.30388 8.34259,-8.98784 11.37791,-26.56786 -1.28335,-32.87523 -0.40843,-0.20346 -0.82053,-0.3982 -1.26197,-0.5775 -1.78551,-0.68479 -3.59567,-1.20309 -5.39008,-1.58281 0.3108,-1.14328 0.60719,-2.3337 0.87696,-3.61477 3.85342,-20.11418 -13.24614,-24.35102 -28.72572,-22.2234 -24.10274,0.56798 -34.0136,-8.69401 -44.98152,14.95106 -10.52519,22.69069 -43.3919,43.83113 -64.78794,64.18904 -0.3994,-0.79282 -0.77241,-1.50465 -1.13363,-2.13892 0.23824,-0.30647 0.47825,-0.62226 0.72724,-0.91974 8.25537,-28.69438 41.92849,-55.65984 58.34978,-65.47239 18.96922,-14.96092 29.29318,-14.96721 31.59187,-49.72993 0.97785,-20.45661 -33.59389,-3.83211 -47.74073,2.80199 -21.67424,7.31436 -25.08515,22.28023 -24.55482,38.2867 0.53034,16.00646 -13.23443,34.0454 -23.72064,62.11428 -0.3388,4.19124 -0.64731,7.82943 -0.96251,11.16517 -1.05629,-1.09274 -1.91579,-1.80844 -2.5881,-2.1817 -0.70214,-6.35143 -1.55654,-13.45447 -2.63087,-21.58172 -3.52567,-26.67119 13.62272,-26.03897 22.6084,-40.21172 9.15258,-19.35444 13.43208,-55.70595 -1.09085,-76.83007 -5.51887,-7.72964 -16.4008,-11.52782 -26.43707,-11.63573 z m -75.07615,100.12292 c 2.49857,1.99052 5.31478,3.9499 8.51291,6.11732 16.18716,8.39664 35.06414,9.61753 45.13124,34.62914 0.44536,1.10649 0.84958,2.07559 1.28335,3.14421 -2.14285,-1.81058 -4.07643,-3.37636 -5.66814,-4.57729 -19.47714,-14.69545 -37.56687,-22.5204 -49.25936,-39.31338 z m 175.34879,27.72042 c -7.90357,10.60209 -14.16433,22.28284 -34.00885,25.26067 -18.47213,2.77189 -31.30915,5.16876 -39.80533,7.20816 -0.49031,0.1177 -0.8858,0.22696 -1.34752,0.34223 -0.65291,-0.31087 -1.53277,-0.61718 -2.67366,-0.91973 4.59494,-3.28561 10.51391,-7.56852 18.0525,-12.91909 20.36749,-14.45596 42.09059,-17.23451 59.78286,-18.97224 z M 303.60239,494.4044 c 15.59748,5.87802 30.93048,12.68013 37.83753,17.11138 0.0612,0.0526 0.11009,0.0973 0.17111,0.14972 0.0771,0.18315 0.15864,0.37437 0.23528,0.55612 -2.37285,-0.0973 -4.84769,-0.19444 -7.46483,-0.27806 -16.28816,-0.52042 -23.44128,-9.11604 -30.77909,-17.53916 z m 158.51548,16.61942 c 2.38999,-0.0115 4.8166,0.11248 7.27234,0.42779 1.44199,0.18514 2.88451,0.33837 4.32062,0.44917 -1.79693,0.27281 -3.42759,0.62043 -4.83396,1.04807 -33.24433,10.10874 -43.06569,21.07854 -59.88981,18.73696 -11.11761,-1.54736 -19.98785,-2.71818 -27.78459,-3.72173 -0.14591,-0.22711 -0.26249,-0.41864 -0.4064,-0.64167 -0.30109,-0.81499 -0.58773,-1.56963 -0.87695,-2.33143 9.05624,0.53515 21.83635,-0.11816 29.85934,-1.94642 20.09233,-4.57858 35.6095,-11.94026 52.33941,-12.02074 z m -155.56377,6.63066 c 7.02442,-0.008 14.15799,1.24092 21.75284,2.65226 -7.81658,1.19687 -17.24669,2.82217 -28.74711,5.04786 -17.41309,3.36998 -24.19599,0.3267 -31.54909,-4.74841 8.21282,1.68844 17.09782,1.02864 25.83817,-1.32613 4.2707,-1.15058 8.4721,-1.62106 12.70519,-1.62558 z m 60.36037,5.43286 c 0.45298,1.08902 0.93917,2.17757 1.43308,3.27255 -0.70489,-0.0835 -1.30174,-0.15815 -1.96781,-0.23528 -0.0424,-0.60949 -0.0801,-1.2866 -0.12833,-1.92503 0.12411,-0.36054 0.24893,-0.71808 0.385,-1.09085 0.0917,-0.01 0.18654,-0.0112 0.27806,-0.0213 z m -18.77973,3.63617 c 0.83213,1.84072 1.65171,3.56697 2.41698,5.19758 -2.98952,8.92717 -7.26855,19.83123 -13.58215,31.99826 -7.72194,26.84023 -25.6986,18.08685 -41.43091,24.87566 12.88247,-20.02557 33.80245,-40.64969 51.41967,-58.20005 0.32626,-1.32647 0.64782,-2.57803 0.96252,-3.7859 0.0706,-0.0287 0.14374,-0.0568 0.21389,-0.0856 z m 43.35594,33.04634 c 6.38916,7.97355 11.73875,15.69089 14.13827,25.41039 0.14506,0.58755 0.29038,1.17283 0.44918,1.75391 -5.31743,-4.84196 -9.83338,-11.35643 -12.76936,-21.17532 -0.62923,-2.10435 -1.21607,-4.01541 -1.81809,-5.98898 z"
         style="color:#000000;fill:#008080;fill-opacity:1;fill-rule:nonzero;stroke:none;stroke-width:4;marker:none;visibility:visible;display:inline;overflow:visible;enable-background:accumulate" />
      <path
         style="opacity:0.25416667;color:#000000;fill:url(#radialGradient8521);fill-opacity:1;fill-rule:nonzero;stroke:none;stroke-width:4;marker:none;visibility:visible;display:inline;overflow:visible;enable-background:accumulate"
         d="m 356.98988,356.12312 c -8.85554,-0.0952 -17.03922,2.68442 -20.34115,8.21346 -12.66991,16.73836 -4.54148,53.37724 4.19229,74.86226 8.46386,20.82102 9.10478,36.04073 10.63044,61.51538 -9.94801,-21.53127 -16.16748,-41.78596 -18.15945,-62.17845 -2.22757,-22.80446 -18.50606,-41.25402 -39.67699,-50.24327 -13.03844,-7.18385 -33.54031,-8.09747 -32.21216,9.56098 2.1752,22.80162 4.67482,35.6851 8.96208,44.46818 -10.17919,-9.87064 -22.53881,-16.17346 -36.46861,-15.74246 -12.75481,-0.92428 -21.87601,12.41798 -16.36275,27.22847 5.37422,13.65652 14.71881,20.41335 25.9665,24.36232 -9.31123,7.66474 -4.66646,23.19604 3.48645,30.52241 0.17272,0.1904 0.35981,0.3704 0.53473,0.55612 -17.35421,-6.44664 -37.35597,-9.65681 -53.04526,3.70033 -12.85034,11.36729 1.14848,26.11476 12.96187,32.85384 17.00535,12.3215 48.78828,16.47282 68.35993,6.50232 19.57169,-9.97053 16.58432,-14.23202 42.00842,-17.13276 5.30237,-0.60496 12.23818,-2.29633 18.92946,-4.38479 -4.9196,5.35588 -10.98963,11.30726 -18.48028,17.60332 -19.46044,22.64532 -43.04044,3.89566 -60.87371,11.27212 -23.47568,9.71036 -31.15437,18.36659 -37.19585,47.05628 -3.85342,20.11418 2.2093,30.19027 17.68888,28.06265 1.90167,-0.88941 19.48491,-5.2146 34.05163,-15.25051 -4.27321,11.83379 -6.49611,26.09703 -7.63595,43.33455 -0.97785,20.45661 23.19873,19.74569 37.34557,13.11159 21.67425,-7.31436 33.50526,-24.56353 33.62385,-50.62828 0.0989,-21.73863 7.6804,-61.26585 20.0417,-83.67461 1.29416,2.46531 2.4722,4.51493 3.50783,6.20287 0.53788,6.05581 1.17354,12.80878 1.94642,20.29837 2.91208,28.21919 -11.25091,27.5692 -18.67279,42.56454 -7.55972,20.47777 -11.09711,58.90748 0.89835,81.25763 8.58052,15.39437 23.78447,7.41064 29.60267,-5.06924 10.46494,-17.70986 12.79639,-47.78825 5.58259,-70.52025 -7.21383,-22.73207 -7.54166,-39.03824 -8.89791,-67.58992 -0.20845,-4.38822 -0.86627,-9.82984 -1.75392,-15.44302 0.97243,0.77843 1.84521,1.47001 2.67365,2.11754 1.25209,6.31359 2.85939,12.4661 4.64146,17.08998 9.80801,25.4486 15.194,48.67702 15.31468,71.58971 0.12068,22.91269 14.63141,42.78858 34.88581,53.68693 12.32243,8.35262 34.62697,6.7117 34.92859,-10.99406 -0.076,-25.29296 -2.25372,-37.2423 -7.12261,-45.30236 7.12803,-1.80798 13.10675,-6.55608 13.34687,-14.58744 0.18649,-19.70198 -18.29857,-32.72295 -34.60775,-40.12617 -13.61835,-4.33854 -28.55241,-2.82995 -39.18504,-20.68337 -2.40902,-4.04503 -4.60345,-7.6507 -6.67344,-10.99406 2.81161,0.6623 5.50504,1.31525 7.78568,1.88225 26.46752,6.58016 39.11391,8.29053 57.94338,21.34644 18.82948,13.05591 40.98501,21.21378 61.53678,10.88711 13.91347,-5.29377 32.19048,-25.1424 20.79032,-38.69309 -10.87245,-12.40994 -29.23267,-17.91983 -44.53235,-19.10057 12.19729,-1.74059 23.16712,-7.08348 30.86464,-17.30388 8.34259,-8.98784 11.37791,-26.56786 -1.28335,-32.87523 -0.40843,-0.20346 -0.82053,-0.3982 -1.26197,-0.5775 -1.78551,-0.68479 -3.59567,-1.20309 -5.39008,-1.58281 0.3108,-1.14328 0.60719,-2.3337 0.87696,-3.61477 3.85342,-20.11418 -13.24614,-24.35102 -28.72572,-22.2234 -24.10274,0.56798 -34.0136,-8.69401 -44.98152,14.95106 -10.52519,22.69069 -43.3919,43.83113 -64.78794,64.18904 -0.3994,-0.79282 -0.77241,-1.50465 -1.13363,-2.13892 0.23824,-0.30647 0.47825,-0.62226 0.72724,-0.91974 8.25537,-28.69438 41.92849,-55.65984 58.34978,-65.47239 18.96922,-14.96092 29.29318,-14.96721 31.59187,-49.72993 0.97785,-20.45661 -33.59389,-3.83211 -47.74073,2.80199 -21.67424,7.31436 -25.08515,22.28023 -24.55482,38.2867 0.53034,16.00646 -13.23443,34.0454 -23.72064,62.11428 -0.3388,4.19124 -0.64731,7.82943 -0.96251,11.16517 -1.05629,-1.09274 -1.91579,-1.80844 -2.5881,-2.1817 -0.70214,-6.35143 -1.55654,-13.45447 -2.63087,-21.58172 -3.52567,-26.67119 13.62272,-26.03897 22.6084,-40.21172 9.15258,-19.35444 13.43208,-55.70595 -1.09085,-76.83007 -5.51887,-7.72964 -16.4008,-11.52782 -26.43707,-11.63573 z m -75.07615,100.12292 c 2.49857,1.99052 5.31478,3.9499 8.51291,6.11732 16.18716,8.39664 35.06414,9.61753 45.13124,34.62914 0.44536,1.10649 0.84958,2.07559 1.28335,3.14421 -2.14285,-1.81058 -4.07643,-3.37636 -5.66814,-4.57729 -19.47714,-14.69545 -37.56687,-22.5204 -49.25936,-39.31338 z m 175.34879,27.72042 c -7.90357,10.60209 -14.16433,22.28284 -34.00885,25.26067 -18.47213,2.77189 -31.30915,5.16876 -39.80533,7.20816 -0.49031,0.1177 -0.8858,0.22696 -1.34752,0.34223 -0.65291,-0.31087 -1.53277,-0.61718 -2.67366,-0.91973 4.59494,-3.28561 10.51391,-7.56852 18.0525,-12.91909 20.36749,-14.45596 42.09059,-17.23451 59.78286,-18.97224 z M 303.60239,494.4044 c 15.59748,5.87802 30.93048,12.68013 37.83753,17.11138 0.0612,0.0526 0.11009,0.0973 0.17111,0.14972 0.0771,0.18315 0.15864,0.37437 0.23528,0.55612 -2.37285,-0.0973 -4.84769,-0.19444 -7.46483,-0.27806 -16.28816,-0.52042 -23.44128,-9.11604 -30.77909,-17.53916 z m 158.51548,16.61942 c 2.38999,-0.0115 4.8166,0.11248 7.27234,0.42779 1.44199,0.18514 2.88451,0.33837 4.32062,0.44917 -1.79693,0.27281 -3.42759,0.62043 -4.83396,1.04807 -33.24433,10.10874 -43.06569,21.07854 -59.88981,18.73696 -11.11761,-1.54736 -19.98785,-2.71818 -27.78459,-3.72173 -0.14591,-0.22711 -0.26249,-0.41864 -0.4064,-0.64167 -0.30109,-0.81499 -0.58773,-1.56963 -0.87695,-2.33143 9.05624,0.53515 21.83635,-0.11816 29.85934,-1.94642 20.09233,-4.57858 35.6095,-11.94026 52.33941,-12.02074 z m -155.56377,6.63066 c 7.02442,-0.008 14.15799,1.24092 21.75284,2.65226 -7.81658,1.19687 -17.24669,2.82217 -28.74711,5.04786 -17.41309,3.36998 -24.19599,0.3267 -31.54909,-4.74841 8.21282,1.68844 17.09782,1.02864 25.83817,-1.32613 4.2707,-1.15058 8.4721,-1.62106 12.70519,-1.62558 z m 60.36037,5.43286 c 0.45298,1.08902 0.93917,2.17757 1.43308,3.27255 -0.70489,-0.0835 -1.30174,-0.15815 -1.96781,-0.23528 -0.0424,-0.60949 -0.0801,-1.2866 -0.12833,-1.92503 0.12411,-0.36054 0.24893,-0.71808 0.385,-1.09085 0.0917,-0.01 0.18654,-0.0112 0.27806,-0.0213 z m -18.77973,3.63617 c 0.83213,1.84072 1.65171,3.56697 2.41698,5.19758 -2.98952,8.92717 -7.26855,19.83123 -13.58215,31.99826 -7.72194,26.84023 -25.6986,18.08685 -41.43091,24.87566 12.88247,-20.02557 33.80245,-40.64969 51.41967,-58.20005 0.32626,-1.32647 0.64782,-2.57803 0.96252,-3.7859 0.0706,-0.0287 0.14374,-0.0568 0.21389,-0.0856 z m 43.35594,33.04634 c 6.38916,7.97355 11.73875,15.69089 14.13827,25.41039 0.14506,0.58755 0.29038,1.17283 0.44918,1.75391 -5.31743,-4.84196 -9.83338,-11.35643 -12.76936,-21.17532 -0.62923,-2.10435 -1.21607,-4.01541 -1.81809,-5.98898 z"
         id="path8465"
         inkscape:connector-curvature="0" />
    </g>
    <path
       id="path8420"
       d="m 590.125,358.46875 c 6.87651,0 13.70885,0.24694 20.46875,0.6875 31.07266,46.9548 49.1875,103.22916 49.1875,163.75 0,164.10747 -133.01753,297.15625 -297.125,297.15625 -1.84494,0 -3.69431,-0.029 -5.53125,-0.0625 C 316.9748,771.43953 293,710.02109 293,643.25 293,485.96487 426.01753,358.46875 590.125,358.46875 z"
       style="opacity:1;color:#000000;fill:url(#linearGradient8447);fill-opacity:1;fill-rule:nonzero;stroke:none;stroke-width:1.86474895000000007;marker:none;visibility:visible;display:inline;overflow:visible;enable-background:accumulate"
       inkscape:connector-curvature="0" />
    <path
       transform="matrix(1.0278076,0,0,1.0278076,208.50064,169.56549)"
       d="m 448.57143,343.79074 a 297.14285,297.14285 0 1 1 -594.28571,0 297.14285,297.14285 0 1 1 594.28571,0 z"
       sodipodi:ry="297.14285"
       sodipodi:rx="297.14285"
       sodipodi:cy="343.79074"
       sodipodi:cx="151.42857"
       id="path8525"
       style="opacity:0.80000000000000004;color:#000000;fill:none;stroke:#4d4d4d;stroke-width:16;marker:none;visibility:visible;display:inline;overflow:visible;enable-background:accumulate"
       sodipodi:type="arc" />
  </g>
  <g
     inkscape:groupmode="layer"
     id="layer2"
     inkscape:label="Thale cress"
     style="display:none">
    <g
       id="g3942"
       transform="translate(-48.741095,146.22782)">
      <path
         inkscape:connector-curvature="0"
         id="path3913"
         d="m 434.16121,611.20613 c -14.16275,-4.49177 -38.86295,-39.22981 -42.25883,-7.92594 -25.46696,13.84811 -44.80184,-22.15262 -41.96396,-44.24806 -0.96898,-34.06759 30.01902,-53.78802 41.75131,-82.39304 12.19016,-19.0626 -2.74959,-55.502 -24.84297,-31.45269 -19.90748,23.11405 3.32386,56.19297 -19.35949,79.26655 -8.53532,25.09772 -35.10982,60.56735 -63.6264,37.92717 -3.49642,-18.96791 -18.12629,-26.43157 -36.28762,-18.24977 -32.89501,-2.72269 8.05584,-33.98369 0.13521,-49.21115 -22.17933,13.07759 -58.77225,7.02239 -60.7043,-24.43445 -1.45943,-22.42828 23.17961,-31.40462 35.09208,-44.4121 -29.01033,11.85693 -73.68935,-18.63415 -53.51163,-50.51751 18.76793,-23.50458 53.18662,-32.9651 82.09104,-31.53979 27.00888,12.4276 41.14114,-16.71677 65.89272,-17.47513 -34.3615,-5.24772 -71.8296,-9.75113 -98.38506,-34.85451 -24.90041,-14.47787 -23.02991,-51.17663 3.80418,-61.54899 22.97875,-12.01062 50.2501,-2.31708 67.53863,14.86067 8.74111,8.9934 18.44989,9.34634 6.39417,-2.26696 -19.78403,-21.59294 -29.91356,-59.6861 -6.29874,-82.29799 25.02717,-22.21021 61.81152,1.47667 69.74464,29.34102 15.51899,29.13662 13.93415,-28.12908 37.51028,-21.3228 31.21304,-4.07113 49.56229,27.90801 54.44563,54.30527 5.33638,24.48748 -2.77068,50.10417 -18.96591,68.69004 -8.63773,13.73408 -14.36612,53.06177 2.7685,53.7766 17.50458,-29.23791 40.41277,-60.93831 33.75496,-96.99613 7.00291,-29.46447 11.88739,-64.90124 41.47941,-80.82391 18.00327,-12.20332 50.54831,-12.73763 57.1956,12.26602 8.8047,36.00947 -18.57461,68.57925 -44.47666,89.858 -22.42115,14.39082 -59.28137,26.3149 -60.97859,56.46125 14.78226,5.77522 40.86848,-8.64456 43.58158,19.14823 6.80863,37.38411 35.76794,-7.16812 55.38262,-11.36778 25.90671,-15.77392 57.49913,-7.12077 80.68851,9.22468 22.84451,8.14767 42.32231,37.41845 13.86625,53.55524 -29.08985,15.84966 -65.58767,14.85445 -97.43051,8.19472 -29.13452,-14.96985 -60.41608,-23.99411 -93.63641,-15.3491 -11.24951,-3.66936 -28.38615,6.49781 -8.30243,8.12258 29.1558,9.26019 61.00927,20.42936 91.38357,9.75229 31.69196,0.47359 50.59637,30.99146 77.03925,43.45584 24.12248,28.67198 -14.20261,52.03915 -38.11692,58.2984 -11.24989,27.27052 -39.08866,31.82238 -65.28931,24.43669 -29.13724,-3.76603 -46.53209,-29.14476 -67.97847,-46.21227 -14.70801,-19.45028 -25.10886,-40.23109 -22.6816,-65.62368 -12.72367,-9.36173 -1.34313,30.8143 0.87902,40.87895 5.29712,23.86855 20.95373,43.0563 31.09178,64.63071 11.48559,27.19079 9.50248,66.24156 -18.14275,82.75628 l -4.93293,1.35865 -5.33945,-0.0421 0,0 z M 413.12995,504.95119 c 13.15473,-17.49479 9.20067,-56.64615 -0.35987,-65.59405 -0.087,10.04376 6.14592,44.49344 -1.85795,36.85501 0.88715,-10.20267 -2.05973,-53.66979 -8.66083,-23.12435 -2.44456,16.9575 -5.40471,40.63963 10.87865,51.86339 z M 281.244,473.38647 c 13.35266,-1.09739 -3.94467,-4.76587 0,0 z m 235.86879,-1.28346 c 31.50683,-8.26184 -26.71057,-58.35773 -11.61718,-21.35354 2.81573,7.5708 5.16026,15.95983 11.61718,21.35354 z m -220.99805,-5.8319 c 29.50207,-4.67015 66.49357,-15.56186 74.67948,-48.40891 -5.06936,-20.81186 -33.72399,8.04069 -46.99537,11.46984 -11.49838,9.02782 -27.24609,21.07193 -27.68411,36.93907 z m -26.82171,-39.73087 c 32.20006,-0.8684 63.83591,-7.5077 91.76505,-23.44668 13.91243,0.75696 37.7037,-22.35735 9.63459,-13.79328 -24.56473,14.23237 -50.29439,8.2335 -74.48205,1.28134 -12.66379,10.70534 -28.54551,25.24348 -40.53405,30.39061 3.9739,2.99208 9.05267,3.88618 13.61646,5.56801 z m 254.64274,-1.11977 c -8.29557,-11.92118 -58.94698,-19.71187 -50.20355,-16.54843 15.88002,7.53156 31.981,17.26783 50.20355,16.54843 z m -273.023,-2.32039 c -2.09279,-5.70226 -6.20674,7.96262 0,0 z m 194.4306,-10.08383 c 17.28074,-10.12551 -26.15711,-11.48496 -3.58209,-1.48165 0.32077,0.74715 2.62476,3.61295 3.58209,1.48165 z m -12.45395,-11.7954 c -0.044,-7.76856 -3.50416,0.67428 0,0 z m 11.80676,-12.99293 c -1.03755,-5.85626 -5.31585,5.92106 0,0 z m 62.2756,-12.94207 c 24.37612,-4.48658 -22.11866,-3.19142 0,0 z m -117.34697,-0.95632 c -7.71423,-14.15395 -23.05032,-6.84122 -3.53895,-1.10706 l 3.53895,1.10706 z m -5.51292,-18.16577 c 0.68447,-33.26296 -24.60413,-59.26406 -46.75121,-80.92781 -8.92904,-10.76511 -37.0017,-11.56378 -20.18637,7.26501 12.01213,28.26176 32.90819,52.35623 58.90166,68.47444 2.2033,2.28785 4.65298,4.84734 8.03592,5.18836 z m 9.4383,-20.1031 c 37.01182,-13.30807 -14.15887,-43.5617 -16.97021,-65.04451 -13.9431,-29.85968 -11.18625,16.57003 -4.78934,25.97931 4.7186,14.2281 12.0474,27.62748 21.75955,39.0652 z"
         style="fill:#008080" />
      <path
         sodipodi:nodetypes="ccccccccccccccccccccccccccccccccccccccccccccccccccccccccccccccccccccccccccccccccccccccccccccccccccccccccccccccccccccccccccccccccccccccccccccccccccccccccccccccccccccccccccccccccccccccccccccccccccccccccccccccccccccccccccccccccccccccccccccccccccccccccccccccccccccccccccccccccccccccccccccccccccccccccccccccccccccccccccccccccccccccccccccccccccccccccccccccccccccccccccccccccccccccccccccccccccccccccccccccccccccccccccccccccccccccccccccccccccccccccccccccccccccccccccccccccccccccccccccccccccccccccccccccccccccccccccccccccccccccccccccccccccccccccccccccccccccccccccccccccccccccccccccccccccccccccccccccccccccccccccccccccccccccccccccccccccccccccccc"
         inkscape:connector-curvature="0"
         id="path3911"
         d="m 436.59882,608.68684 c -13.67379,-4.30627 -38.96901,-37.65504 -41.43785,-13.79859 10.08019,11.0304 -26.11234,14.3101 -29.00375,-0.62023 -23.0181,-27.55898 -11.19263,-70.19973 12.60754,-93.26874 14.67038,-15.84548 29.69991,-46.99193 13.18456,-65.52718 -34.2564,-3.77674 -33.50297,38.53154 -29.8782,61.92951 -12.8954,19.02934 -16.98172,47.84677 -37.39262,62.77291 -20.8054,23.38534 -44.44783,-10.50237 -51.41957,-21.8347 -21.31728,13.34281 -50.14384,-2.56667 -27.02527,-25.40207 10.56479,-10.33053 11.16408,-29.797 -7.17007,-16.24205 -23.48077,11.52312 -58.91548,-12.75444 -46.23823,-39.21853 4.2692,-16.39109 36.68011,-31.75799 34.03426,-33.67922 -24.06169,7.26853 -57.93336,-5.35446 -60.29291,-33.0887 2.68979,-32.00407 38.16596,-40.68918 63.82182,-47.48224 24.22128,-6.68407 47.96022,10.62045 68.0108,-11.67692 10.31964,-8.11792 37.64167,-4.29645 11.55386,-9.40271 -34.45687,-3.80715 -71.65813,-11.56028 -94.84722,-39.81643 -24.43931,-16.59063 -8.96501,-48.04578 14.58476,-55.36527 20.01996,-12.43126 46.11491,3.64205 61.96765,15.617 7.67883,10.58787 22.68283,10.9955 7.79207,-2.11659 -23.43095,-22.22643 -30.01921,-69.82048 1.86578,-87.64971 22.46255,-10.65206 47.97412,6.67409 57.22067,27.48175 4.54454,11.95545 13.511,30.60573 18.36873,7.51749 6.89943,-31.5335 52.22768,-24.37092 64.39754,-0.21589 16.63452,27.2354 20.50454,64.03992 1.1498,91.11579 -15.65159,20.3748 -19.5073,48.59047 -9.95086,71.80588 11.71914,-12.41519 20.20601,-32.80913 30.02433,-48.7525 10.25788,-17.63293 11.64271,-38.14873 10.11473,-57.92296 6.25203,-23.91022 8.88417,-52.31989 29.39113,-68.4279 15.31983,-17.01126 50.43768,-28.871 64.90571,-5.20498 16.23428,26.97576 -3.24986,56.36341 -20.41992,77.33556 -16.75617,27.47025 -51.87344,30.45896 -71.97764,53.14115 -7.65465,8.91973 -21.5354,34.51725 2.69553,25.14906 24.2421,-10.35105 36.72373,23.97991 36.99601,34.96688 24.06345,-5.66244 38.55045,-30.3523 63.67015,-34.87039 29.99821,-8.15243 56.70217,7.33794 79.71656,24.32335 35.63312,17.06243 2.4957,53.51192 -25.02212,53.6653 -28.53493,4.30369 -60.49316,5.99735 -86.75489,-7.94635 -24.53776,-19.02828 -58.22216,-9.41863 -86.57467,-9.47633 -31.36652,7.44447 20.47118,12.16723 31.05618,18.45243 28.44458,15.93135 59.74959,-10.18449 87.04141,8.13685 19.98417,20.75857 64.55092,29.8069 55.50466,66.32054 -8.32084,23.44251 -44.45536,13.25513 -51.18478,38.46658 -11.39009,22.98569 -50.15335,15.86246 -71.84903,9.15174 -25.24895,-14.50089 -51.90926,-34.29828 -64.03485,-60.84438 -17.91205,-15.09972 -4.37059,-42.36159 -18.81112,-55.27688 -1.26943,18.25402 4.99496,37.87458 9.27081,56.09136 4.33509,19.90082 17.58717,35.74969 26.82059,53.05057 11.97072,26.19055 13.63745,61.78334 -8.61083,83.00149 -4.87116,4.1694 -11.41354,6.71102 -17.87124,5.63525 z m -78.54741,-32.41623 c -1.99135,-0.71677 0.56751,1.7878 0,0 z m 0.90437,-20.04461 c -2.12541,-1.22368 -1.05915,4.14937 0,0 z M 239.50499,539.5247 c 10.53731,-1.54193 -2.47552,-4.90225 0,0 z m 5.8797,-2.34406 c 1.37307,-2.83274 -3.68471,1.92237 0,0 z m 4.19026,-0.58215 c -0.47635,-9.56402 -14.74559,0.91569 0,0 z m 1.78097,-1.71123 c 0.6342,-3.45819 -1.69449,1.90551 0,0 z m 2.3172,-3.82181 c 0.66701,-4.72877 -4.24033,0.91274 0,0 z m -12.31138,-0.0279 c -0.60911,-2.66322 -1.99763,1.3526 0,0 z m 8.66482,-1.28735 -0.59484,0.011 z m 185.42724,0 -0.47439,1e-5 z m -0.57436,-1.14091 c -1.58919,-3.65988 -3.20987,3.6763 0,0 z m -178.56018,0.24794 c 8.14608,-7.02362 -6.29378,-3.52987 0,0 z m 1.62943,-0.23568 c -0.84697,-0.98763 -0.2683,1.399 0,0 z m -11.54455,-1.37543 c -0.1536,-5.76432 -4.8141,3.54145 0,0 z m 188.26755,-0.32404 c 4.99657,-6.65201 -4.76545,-3.41031 0,0 z m -185.88296,-0.7616 c -0.46027,-1.46989 -0.92609,1.46573 0,0 z m -0.7427,-0.94075 c 16.6769,-8.26144 -6.54098,-21.71054 0,0 z m 1.6355,-7.4972 c 0.57343,-1.04213 0.38489,1.83043 0,0 z m -5.16332,7.01444 c -0.74772,-4.88909 -2.58968,1.32928 0,0 z m 188.70749,-3.92979 c 6.71287,-26.09405 -4.37078,-52.66331 -3.83788,-79.01535 -1.57352,-19.46821 -10.54055,-8.32559 -8.12813,-2.77864 -10.40819,-26.06077 -2.48491,25.793 -3.46712,35.61798 -9.33705,11.7884 1.57583,-33.71021 -8.77174,-40.69388 -7.92687,19.33843 -13.25482,61.01871 9.46238,65.63944 11.09657,-11.71482 2.52436,-42.05747 4.90778,-45.46965 5.30799,21.42675 5.48648,47.57745 9.83471,66.7001 z m 0.49513,-5.16827 c 0.9967,-3.42536 0.9967,3.42536 0,0 z m 0.85443,-2.51325 c 0.13031,-3.42098 1.55023,2.53952 0,0 z m -2.46391,-14.32174 1.10456,-0.55696 z m -0.20085,-6.59614 c -0.96214,-1.84141 2.28942,0.20067 0,0 z M 261.80444,520.4551 c 11.41507,-13.24414 -16.79638,-13.98285 0,0 z m -1.13059,-5.24937 c 1.45266,-3.12579 2.28045,1.5563 0,0 z m 0.24563,-1.27911 c 0.62474,-1.97138 0.9749,1.65062 0,0 z m -0.99026,-0.63953 c 0.85306,-1.56899 0.85306,1.56899 0,0 z m -0.24757,-1.59458 c 0.26827,-1.39901 0.84698,0.98763 0,0 z m 176.46533,9.34341 c 1.59311,-3.43437 -3.40442,0.13556 0,0 z M 317.11706,520.4968 c -0.43722,-3.63347 -2.26133,2.10772 0,0 z m 120.93619,-1.88705 -0.34124,-0.009 z M 578.3854,517.6195 c 4.51986,-6.89355 -11.95762,0.11601 0,0 z m -266.7148,-0.86648 c -1.16216,-2.57989 -1.21508,2.43449 0,0 z m 0.99026,-1.11096 c 11.15747,-10.03713 5.2646,-18.94232 -1.30141,-3.72481 l 0.19244,2.01781 z m 263.94443,-2.88457 c -5.4767,-15.35185 -17.40642,-7.56832 0,0 z m -4.7424,-4.42171 c 0.61485,-1.3016 0.61485,1.3016 0,0 z m -9.40753,3.09436 c 20.57812,-3.10974 -10.25204,-9.0375 0,0 z m 0.17179,-3.87182 c -0.43209,-1.65282 1.48477,0.48048 0,0 z m -250.31471,2.01185 c -1.19526,-3.49371 -2.8594,3.79334 0,0 z m 12.22796,-1.04894 c -2.15151,-8.76858 -5.62017,-0.54828 0,0 z m 244.84682,-1.409 c 0.003,-1.67369 -1.33423,1.29294 0,0 z m -1.4854,-1.4646 c -2.40812,-2.96308 -1.55945,1.84468 0,0 z m -1.98053,-1.14945 c -1.05336,-3.07046 -3.16125,0.26526 0,0 z m -243.22066,-1.01153 c 0.19564,-2.00834 -1.43557,0.97617 0,0 z m 77.35117,-1.61649 c -1.83786,-3.78641 -3.72077,0.9976 0,0 z m 41.49317,-1.51327 -0.13785,0.48648 z m -1.38741,-1.05731 c -1.17208,-6.47344 -0.79334,6.99922 0,0 z m -117.03702,0.89322 c 0.48179,-3.66281 -4.86933,2.80881 0,0 z m 113.81866,-0.10737 c -0.82329,-2.95762 -2.7377,1.13256 0,0 z m -130.21993,-0.80647 c -0.97494,-1.6506 -0.62471,1.97141 0,0 z m 18.81504,-3.50735 c 8.70392,-7.3416 -3.01495,-7.025 0,0 z m 5.38457,-7.59855 c 11.22825,-20.0764 40.25964,-39.83288 41.58665,-59.12856 -13.55076,19.29528 -33.46874,37.28839 -41.58665,59.12856 z m -16.76231,-3.12098 c 0.0825,-2.9229 -2.43321,1.81396 0,0 z m 84.97711,-6.76958 c 2.86696,-9.18391 -4.01237,6.02334 0,0 z m 34.83472,1.35014 -0.48404,-0.14197 z M 237.64824,477.5458 c -0.79569,-5.75786 -2.20932,2.29442 0,0 z m 161.49744,-4.77695 c -1.06891,-3.24503 -3.43714,3.37747 0,0 z m -114.70739,-1.19672 c 14.90781,-4.02202 -6.9936,-2.90711 0,0 z m 47.92888,0.45503 c 0.1517,-4.34191 -2.89648,1.48604 0,0 z m 69.54138,0.0401 -0.59486,0.011 z m -3.09458,-1.23783 -0.34124,0.009 z m 121.41728,-0.55021 c 27.43264,-9.17836 -18.15802,-54.58687 -16.24025,-31.32795 6.29662,9.87931 6.27538,24.10975 16.24025,31.32795 z m -117.70378,-1.43032 -0.59486,-0.011 z m -169.3212,-1.75955 c -0.0541,-2.94695 -2.75947,2.98956 0,0 z m 108.56848,-0.90558 c 4.51895,-3.67263 -4.00575,-0.71703 0,0 z m 60.75272,-0.0316 c -0.77818,-1.97891 -1.25079,1.41642 0,0 z m -3.01546,-0.70982 c -1.24564,-2.25066 -0.92626,2.52914 0,0 z m -101.08622,-0.57411 c 29.98171,-4.58281 63.44053,-15.69132 76.1567,-45.93034 2.45241,-27.35923 -31.76954,2.2241 -44.01937,5.91291 -13.00829,7.7867 -34.18105,26.78025 -32.13733,40.01743 z m 104.4126,-2.39416 c 0.57509,-11.63487 -5.71788,-1.65781 0,0 z m 0.17436,-4.90131 c -2.16582,-0.50277 0.86117,2.00505 0,0 z m 69.55994,-1.20661 c 2.03489,-22.66039 -22.18167,-33.26932 -33.60813,-48.79243 -10.08105,10.04428 22.46631,30.15542 29.52002,43.62725 l 2.06332,2.56902 z m -3.26419,-7.59042 c -8.83114,-4.29659 1.84202,-4.78404 0,0 z m -9.71698,-12.35804 c 0.4503,-1.0586 0.67599,1.19555 0,0 z m -9.42171,-14.46239 c -0.989,-1.92023 2.09071,1.69986 0,0 z M 434.46353,406.2146 c 0.69482,-1.18908 1.2612,1.91712 0,0 z m -30.46896,45.94561 c 2.56528,-4.31641 -2.96841,0.48274 0,0 z m -2.36698,-1.43739 c 0.15744,-5.03652 -3.43478,0.18541 0,0 z m 60.15391,-0.57523 c 6.32344,-4.38549 -4.97838,-3.17351 0,0 z m -20.45154,-0.2994 c 2.98294,-6.2889 -8.74569,2.71536 0,0 z m -37.06953,-0.30946 -0.34124,0.009 z m 33.61229,-0.78912 c -1.03205,-1.45768 -0.60278,1.14769 0,0 z m 8.52792,-1.2533 c 4.82578,-5.50301 -3.11246,-3.35446 0,0 z m -44.53725,-2.2281 c 9.55577,-0.58578 -6.57618,-2.11861 0,0 z m 55.37625,-0.43324 -0.72472,-10e-6 z m -19.59864,-1.3181 c 0.34512,-3.25158 -3.01167,2.63491 0,0 z m 19.98242,-0.10541 c 2.81139,-5.5573 -3.94553,0.70963 0,0 z m 85.31373,-0.21135 c -3.50092,-8.19371 -3.85004,2.45183 0,0 z m -102.3949,0.1279 c 0.19564,-2.00835 -1.43559,0.97619 0,0 z m -35.29155,-0.74798 c -1.88031,-2.11126 -3.35747,1.47895 0,0 z m 39.36306,-0.0969 c -0.85306,-1.56899 -0.85306,1.56899 0,0 z m 1.79275,-0.39195 c 2.98726,-7.03026 -7.997,1.91247 0,0 z m 90.2582,-1.79478 c -0.95325,-1.65009 -0.6428,1.95833 0,0 z m -84.11061,-0.43832 c -3.66009,1.46146 -0.78674,-1.91714 0,0 z m 85.63976,0.0559 c -0.33782,-2.92208 -1.69504,0.8319 0,0 z m -95.06689,-0.46354 c 2.87983,-9.25799 -8.08385,-2.25894 0,0 z m 91.60096,-0.38373 c -1.39426,-3.48189 -2.41459,1.67065 0,0 z m -69.07103,-6.3625 c -0.27415,-1.76123 -1.03744,1.84024 0,0 z m -28.51279,-0.69878 c 9.90962,-3.14632 -4.13626,-3.03121 0,0 z m -124.29746,-2.33392 c -1.37002,-1.73876 -0.86947,1.28274 0,0 z m 2.61406,-1.54351 c 5.92527,-4.61314 -5.31291,0.68967 0,0 z m 125.3425,-1.05592 c 0.54162,-4.26393 -5.81917,2.36328 0,0 z m 30.95333,-0.18568 c 9.17584,-1.45509 1.16149,-5.17743 0,0 z m -150.72736,-0.55702 c 3.68725,-2.9159 -3.1865,0.0357 0,0 z m 141.5674,0.0619 c 3.91467,-3.33615 -4.47483,-0.54228 0,0 z m -190.45101,-1.4854 c 29.33601,-2.76113 60.12975,-3.89167 85.08995,-21.46376 10.79864,-0.44352 50.67563,-19.09387 21.48778,-18.69484 -23.76146,11.9933 -48.16939,15.74837 -72.03067,3.23628 -21.31821,1.44058 -26.55739,25.50961 -47.10262,29.39978 -0.16162,5.38622 9.10771,5.83886 12.55556,7.52254 z m 185.92384,-0.16956 c 4.66844,-6.99992 -5.19895,-2.8153 0,0 z m 69.02411,-0.57314 c -10.76859,-13.80285 -48.5217,-18.98071 -52.42499,-17.71926 16.74463,7.57268 33.49599,17.62079 52.42499,17.71926 z m -57.63039,-3.3889 c -1.73478,-3.97981 -2.50061,3.80029 0,0 z m -6.14927,0.0324 c 1.10845,-6.71887 -3.75099,0.91787 0,0 z m -267.47867,-3.0803 c -4.67191,-9.87962 -21.13892,-6.78883 -4.18172,-1.41839 z m -3.82842,-0.54313 c -1.10007,-1.80514 1.88416,-3.8e-4 0,0 z m 284.04792,1.26773 c -1.11782,-1.44999 -0.97302,1.71607 0,0 z m -15.85019,-0.0967 c 0.83243,-5.85947 -4.29948,0.45493 0,0 z m 12.33168,-1.30867 c 0.45534,-5.33687 -4.23528,2.86072 0,0 z m -15.83809,-0.91291 c -1.00694,-0.99126 -0.3971,1.61691 0,0 z m -1.19141,-2.49995 c -2.88478,-4.66927 -2.90561,3.73917 0,0 z m -272.42276,0.51495 c -122.055947,425.47632 -61.02797,212.73816 0,0 z m 264.99577,-0.24396 c -0.46109,-2.13907 -1.08225,0.8609 0,0 z m 0.23417,-2.48472 c 21.85978,-6.79236 -28.58265,-20.32074 -6.92441,-4.3575 1.62879,1.69863 3.78207,5.56317 6.92441,4.3575 z m 25.7603,-0.5006 c -1.39406,-3.22759 -1.27854,2.49289 0,0 z m -292.98608,-4.37279 c 0.8744,-18.46373 -23.09104,-6.19606 0,0 z m -2.36064,-0.94989 c -0.64332,-3.00155 2.42491,1.28067 0,0 z m -0.7427,-2.57024 0.47538,-0.27335 z m -3.46593,-5.35189 c 0.60871,-1.46306 0.73901,1.51191 0,0 z m -3.34215,-2.35188 0.34123,0.009 z m 290.08106,9.38235 c -4.82105,-7.44254 -12.26256,-0.46043 0,0 z m 3.40891,0.0398 c -0.46109,-2.13902 -1.08223,0.86089 0,0 z m -29.06281,-2.63497 c -2.61282,-0.0191 2.14566,3.14871 0,0 z m 17.17963,0.2831 -0.48405,-0.14195 z m -1.0944,-2.42833 c -0.85167,-3.25085 -1.37235,2.40539 0,0 z m -27.62331,-5.68223 c 6.1119,-5.47546 -3.56461,-0.61288 0,0 z m -250.35028,-0.50692 c -0.62833,-1.71953 -1.60968,1.56951 0,0 z m -2.03496,-0.58549 c 17.55388,-10.25189 -9.98879,-14.62732 0,0 z m 2.59074,-6.77961 c 0.57093,-1.8156 0.57093,1.8156 0,0 z m 243.60534,6.6989 c -0.59295,-1.90737 -1.39632,1.49028 0,0 z m -241.62481,-0.5097 -0.72472,0 z m 239.37837,-0.59678 c 4.04959,-9.92227 -7.9888,-5.5804 0,0 z m -2.70488,-3.98315 c 0.57322,-1.42578 0.57322,1.42578 0,0 z m -237.41619,3.58972 -0.47439,-1e-5 z m 6.22212,-0.56594 c 2.02575,-8.00309 -8.1018,-2.89827 0,0 z m -3.64333,-0.58344 c 0.33615,-1.79191 -1.76579,1.67807 0,0 z m 240.77899,-2.53372 c -0.42041,-2.71842 -1.47166,0.73951 0,0 z m 3.46593,-0.54781 c -0.94389,-2.89084 -0.93143,2.12051 0,0 z m 25.43745,-0.78498 c -0.53468,-5.6645 -4.91429,3.33854 0,0 z m -41.77683,-0.0448 c -0.42368,-1.72931 -1.67152,1.88988 0,0 z m 6.08248,-0.16607 c -0.4906,-2.34667 -1.21698,1.13455 0,0 z m 6.41962,-1.45295 c 0.0606,-4.27517 -5.22778,0.44121 0,0 z m 4.08485,-0.62371 c -0.46025,-1.46988 -0.92609,1.4657 0,0 z m -2.08652,-0.61204 c 17.55053,-1.07768 -2.77362,-8.29647 0,0 z m 125.68404,-1.44588 c 1.24517,-4.05937 -6.25707,4.66926 0,0 z m -25.13504,-1.18824 c 11.88111,-0.23875 2.77929,-5.22007 -1.89401,-1.02091 z m -109.90953,0.68831 c 1.55123,-4.53127 -7.05028,0.95836 0,0 z m 131.9361,-1.27949 c 9.87431,2.27455 45.07517,-5.03734 17.37497,-5.16855 -5.63143,0.4312 -42.70801,0.87301 -17.37497,5.16855 z m 10.80657,-3.6004 c 0.0548,-1.93436 2.04454,2.1659 0,0 z m -160.31378,2.80937 c -1.9633,-2.8121 -0.29959,1.90079 0,0 z m 147.3549,0.15149 c -0.7104,-1.17063 -0.3383,1.69348 0,0 z m -108.80544,-1.0692 c -2.30436,-5.3561 -3.07894,1.90371 0,0 z m 2.3481,-1.09094 c -1.26854,-0.26114 0.2939,1.49415 0,0 z m -48.27167,-0.0326 c -5.18215,-8.39523 -15.41872,-1.68987 0,0 z m 31.44094,-0.86331 c -2.26198,-8.2434 -6.04487,-4.55646 0,0 z m 31.6885,-0.0178 c 6.34444,-10.71081 23.72355,-24.72749 -0.23106,-15.58012 -13.66293,2.59262 -3.94029,17.92738 2.99495,5.30699 1.50055,3.34849 -2.00821,7.22075 -2.76389,10.27313 z m -4.70376,-11.03734 c 0.71042,-1.17058 0.33824,1.6935 0,0 z m 5.69402,-2.20746 c 0.81084,-2.38688 0.7987,2.24385 0,0 z m 3.92794,13.3128 c 7.32969,1.20381 -2.1663,-2.69637 0,0 z m -16.30626,-1.12487 c -1.6733,-0.8508 -1.54591,2.6423 0,0 z m 18.27342,-1.56168 c 11.36818,-9.37751 -7.19599,1.03121 0,0 z m -29.06456,0.48845 c 2.46353,-5.74343 -6.70807,0.29397 0,0 z m 82.38353,-0.97675 c 25.19488,-0.61243 -14.02337,-9.8964 -6.06643,0.0634 1.99596,0.5519 4.04576,-0.0414 6.06643,-0.0634 z m -80.15368,-0.0142 c 2.94223,-3.06328 -3.77596,-0.40684 0,0 z m -36.00066,-0.92646 c -5.12095,-11.90443 -29.21311,-13.6849 -9.04645,-3.05388 2.88039,1.33086 5.76595,3.0056 9.04645,3.05388 z m -23.05385,-0.63234 c -1.46213,-5.35958 -8.33731,1.84348 0,0 z m 50.03859,-0.24497 c -0.63485,-1.48577 -1.04453,1.11245 0,0 z m 43.96581,-0.39784 c 4.60052,-3.76579 -4.18573,-0.12384 0,0 z m -80.86073,-0.30946 c -1.32794,-0.78368 0.6859,2.02992 0,0 z m 29.63763,-0.10504 c 2.32486,-3.18037 -2.94054,1.27148 0,0 z m -38.79006,-1.68978 -0.47439,-1e-5 z m 86.33378,-0.91313 c -0.63001,-1.59949 -0.91694,1.49855 0,0 z m -47.36775,-0.96606 c 0.0186,-2.90502 -2.57169,1.32069 0,0 z m -1.8968,-1.09171 c -1.04156,-3.45169 -1.48448,3.37235 0,0 z m -2.86266,0.33298 c 1.17507,-2.50799 -2.61723,1.62273 0,0 z m 60.55982,-1.26212 c -0.57164,-3.0268 -3.88976,3.07163 0,0 z m -58.86926,-1.62901 c -0.31961,-1.75904 -1.66584,1.89127 0,0 z m 7.42699,-0.17534 c -0.37782,-2.64328 -2.48453,1.05059 0,0 z m -11.76317,-0.74423 c 6.39655,-3.88706 -3.96313,-4.52565 0,0 z m 57.95931,-0.12343 c 0.19564,-2.66135 -1.70883,2.47782 0,0 z m -51.42829,-1.00835 c -0.84281,-3.93021 -6.40898,0.15452 0,0 z m 3.25162,0.54083 c 1.20309,-4.70706 -3.00747,0.50488 0,0 z m -29.46041,-0.55965 c -0.50122,-4.47425 -2.73629,0.10554 0,0 z m 50.14238,-0.33948 c -0.46184,-1.5734 -1.28098,1.39147 0,0 z m -53.58297,-2.87381 c -3.8586,-3.79028 0.10396,3.85434 0,0 z m 36.81599,0.45574 c -3.22303,-4.67478 -3.04178,4.34139 0,0 z m 18.22195,0.79887 c 1.3339,-2.06283 -2.78496,-0.0995 0,0 z m 3.87783,-1.39702 c 10.44468,-9.40494 -12.51575,4.68008 0,0 z m -27.07193,-0.10875 c -0.57396,-2.32624 -1.50926,1.37471 0,0 z m 47.35207,-0.20069 c 8.03884,-3.30608 -5.16436,-2.14871 0,0 z m -14.06887,-1.02863 c 0.66842,-3.33435 -3.70409,1.53693 0,0 z m -35.78112,-0.7758 c -2.01454,-0.74865 1.61276,1.97824 0,0 z m -29.46392,-0.6794 c -1.58198,-1.50106 0.4749,2.17148 0,0 z m 75.18537,-0.15232 c -0.71792,-8.12768 -3.97653,1.06905 0,0 z m -6.51681,-0.21086 c -0.64688,-1.95831 -0.8969,1.99634 0,0 z m -63.90216,-0.93421 c 3.05379,-30.07435 -22.73265,-53.73709 -39.49416,-75.41138 -9.5105,-8.02429 -46.01247,-28.9421 -29.62925,-2.50972 10.07989,29.57547 31.7897,51.99752 56.47404,69.97436 3.85683,3.15094 7.94424,6.17397 12.64937,7.94674 z m 52.21227,-1.06413 c -1.28012,-3.58008 -2.412,2.81288 0,0 z m 6.18669,-3.40171 c -0.60278,-1.14775 -1.03204,1.45769 0,0 z m -3.73462,-0.33714 c 1.49734,-3.00037 -3.08064,1.28696 0,0 z m 2.56979,-4.66928 c 2.24169,-3.95546 -4.54271,0.88856 0,0 z m -24.07608,-7.60852 c 3.68173,-21.13193 -3.25835,-42.43074 -3.45572,-62.67407 -4.3577,-9.89093 -8.44594,-47.35229 -7.26267,-16.71278 3.88365,23.25045 0.79653,47.11146 4.35628,70.70255 1.03049,1.4913 3.27852,11.11659 6.36211,8.6843 z m -3.66762,-55.25006 c 0.26825,-1.39902 0.84701,0.98761 0,0 z m -20.7173,52.60593 c 36.47088,-5.62172 -2.54954,-40.80806 -12.25849,-54.35635 -2.25348,-11.56465 -16.38013,-37.5822 -14.90711,-10.27714 1.84565,23.72832 13.05273,45.85728 27.1656,64.63349 z M 509.17664,239.1133 c -1.23651,-6.26007 -17.00469,21.23118 -23.13335,28.91744 -61.53434,98.59487 -5.64047,27.16433 23.13335,-28.91744 z m -14.14185,22.85258 c -2.00855,-2.46887 2.09595,-0.12487 0,0 z m -169.10264,50.77213 c 2.9972,-8.88726 -2.42852,3.09103 0,0 z m -3.36863,-0.18895 c -2.93242,-13.32767 -29.6743,-14.77724 -10.10026,-7.9039 3.02209,1.97895 5.74069,8.95081 10.10026,7.9039 z m 100.59155,-14.95425 c -0.218,-5.56872 -4.02328,3.21174 0,0 z M 303.3481,297.26927 c -1.26663,-3.40936 -4.17918,2.80211 0,0 z m 117.49928,-2.3504 -0.35527,-0.0224 z m 1.73297,-1.06912 c -0.33777,-2.92209 -1.69507,0.83183 0,0 z m -126.25887,-0.52545 -0.34123,0.009 z m 2.47566,0 -0.47439,1e-5 z m -2.38876,-0.93058 c 0.49989,-5.41588 -3.76688,0.57941 0,0 z m 110.16781,-0.62157 c 1.40472,-5.87951 -4.5751,0.30529 0,0 z m 14.02362,0.20515 -0.59571,-0.0991 z m -127.74396,-1.91073 c -2.28707,-5.10196 -10.6702,0.46458 0,0 z m 101.62144,-3.17075 c -0.16295,-5.94009 -4.13475,6.9327 0,0 z m -28.83722,0.99663 c -0.64094,-3.09434 -0.9688,1.60045 0,0 z m -76.87806,-1.60231 c -2.68412,-2.69588 0.90395,2.49582 0,0 z m -2.83832,0.16185 -0.99386,-0.74646 z m 118.83187,-1.80146 c -2.86452,-7.12658 -2.20615,5.14588 0,0 z m -41.05645,0.004 c 3.64392,-11.84036 -4.78923,1.1374 0,0 z m 24.9209,0.41805 c -0.87141,-1.55333 -1.07197,2.32978 0,0 z m -103.55549,0.0706 c -0.25121,-3.45389 -3.03038,0.71593 0,0 z m 113.00675,-4.27742 c -0.006,-5.09734 -3.519,2.40421 0,0 z m 92.30887,-3.39952 c 0.61168,-3.13556 -1.57633,2.83836 0,0 z m -100.60553,-1.16172 c 1.41445,-4.14965 -6.28882,3.39765 0,0 z m 3.78737,-4.88944 c -1.63257,-6.6896 -2.31987,6.06322 0,0 z m 24.80974,-0.37135 -0.72472,1e-5 z m -18.56748,-1.09834 c -0.54534,-4.6814 -1.7201,2.833 0,0 z m 21.04356,-0.1389 c -4.06502,-6.45221 -1.48042,3.18407 0,0 z m -65.7293,-1.98152 c 7.00724,-0.30702 -4.39997,-1.99453 0,0 z m 33.62623,-0.38195 c 11.96044,-10.19759 -5.62351,-8.86409 0,0 z m 14.0303,-0.94934 c -0.69413,-4.04925 -2.46621,2.73301 0,0 z m 105.66372,-0.33977 c -0.86908,-1.54201 -0.63751,1.68792 0,0 z m -154.8253,-0.76776 c 4.19088,-4.04703 -10.22832,-4.67349 0,0 z m 3.91627,0.564 c 0.95731,-6.7855 -3.93078,-0.31733 0,0 z m 24.37565,-4.90795 c -3.22924,-2.31715 -0.0233,4.61766 0,0 z m -26.17695,0.23311 c 0.73141,-2.32066 -1.66994,1.34608 0,0 z m 47.29418,-1.44892 c 0.0859,-3.85193 -2.61147,1.76713 0,0 z m 17.32965,-0.6522 c -1.69034,-3.443 -2.95293,1.87473 0,0 z m 87.61006,-0.11131 c -0.24685,-3.99589 -2.90052,2.16509 0,0 z m -153.15402,-2.25172 c -1.13904,-1.92085 -0.71659,2.36944 0,0 z m 41.77495,-0.0648 c -0.72252,-7.05016 -5.00246,1.98792 0,0 z m -12.41109,-1.27261 c 1.42837,-3.70596 -3.40926,1.0823 0,0 z m 36.87328,-7.99875 c 0.94211,-2.84845 -2.90923,1.72726 0,0 z m -71.85395,-1.05666 c 0.7061,-2.63388 -2.28627,1.74219 0,0 z m -7.07401,-7.62054 c 0.1179,-2.30067 -2.10379,0.93408 0,0 z m 172.0853,-4.09647 c 11.39961,-11.81397 -7.75548,-9.14163 0,0 z m -1.60109,-2.45373 c 0.0635,-1.5165 2.17374,0.93567 0,0 z m -8.20064,-38.19738 -0.34124,-0.009 z m 47.9041,-8.78861 c -0.80038,-1.45093 -1.1423,1.96649 0,0 z m -232.42018,-4.70995 c -1.32087,-3.15068 -3.45546,2.01091 0,0 z m 182.1642,-7.04945 0.59485,-0.011 z"
         style="fill:#7d8f3d;fill-opacity:1" />
    </g>
  </g>
</svg>
